13:35:27.465 INFO  {"lugareAdicionados":0,"reviewsAdicionados":2,"_id":"5c052b902b198679aadcfa91","email":"caio@hiboost.com.br","password":"$2b$10$Ekouug1DVEu43fzUd/./GuoF9k3XcRxPKckloJ8xQA.MITgDjvEhq","username":"Caio Fernandes","favorites":[],"created":"2018-12-03T13:11:44.716Z","__v":0,"refreshToken":"D1PY0LLp2rm7OruIv56tuR78oPsi1sYqeCeJIi6gDSeEaAXeCj2k0cikks290fLvWucNnhpBzvtQ24DEBLNw7Ln8RcHnezqcqGzf7aFcEXugBdch5edJWHiSJxKiQHRWzvEZJeBNhNM5f2A6OzY6sXPcZ43GI9uw8UmoW7xenjzJAK55YsN50wSPZqmuS2JFiMurETujI5OOJvHc5UUbIzxWvnp8M5ICPpb4ftGKi7VwQagsn7QmjVIk6B3ABT8J"} 
14:13:08.133 INFO  {"lugareAdicionados":0,"reviewsAdicionados":2,"_id":"5c052b902b198679aadcfa91","email":"caio@hiboost.com.br","password":"$2b$10$Ekouug1DVEu43fzUd/./GuoF9k3XcRxPKckloJ8xQA.MITgDjvEhq","username":"Caio Fernandes","favorites":[],"created":"2018-12-03T13:11:44.716Z","__v":0,"refreshToken":"r8Ly63AHNlnWXyv2r09vPMzWaWtgrh1BNU5gxVyJRid1eOr6Hf37pU0KwvJfEWBYao974SmEkNmff5TMNDidxpPqCTNJeEw24Exy9cF690pYx7qUJy1W7PMAy7xLZSszfuVlGWaIOou9CbcaJCpNJlJjgk4jFnruYGg1T3oM2PeSewPz4psz0Otu3fuVelgECGfGHorA6eSvChx4TfESh3plxkq1gq0dtqdY6HlZlHShHLYkkPp8E5U8OBBkRJmh"} 
14:13:20.898 INFO  {"lugareAdicionados":0,"reviewsAdicionados":2,"_id":"5c052b902b198679aadcfa91","email":"caio@hiboost.com.br","password":"$2b$10$Ekouug1DVEu43fzUd/./GuoF9k3XcRxPKckloJ8xQA.MITgDjvEhq","username":"Caio Fernandes","favorites":[],"created":"2018-12-03T13:11:44.716Z","__v":0,"refreshToken":"r8Ly63AHNlnWXyv2r09vPMzWaWtgrh1BNU5gxVyJRid1eOr6Hf37pU0KwvJfEWBYao974SmEkNmff5TMNDidxpPqCTNJeEw24Exy9cF690pYx7qUJy1W7PMAy7xLZSszfuVlGWaIOou9CbcaJCpNJlJjgk4jFnruYGg1T3oM2PeSewPz4psz0Otu3fuVelgECGfGHorA6eSvChx4TfESh3plxkq1gq0dtqdY6HlZlHShHLYkkPp8E5U8OBBkRJmh"} 
14:19:42.649 INFO  {"lugareAdicionados":82,"reviewsAdicionados":84,"_id":"5bcf0f4d39b9c1ede6cdc538","email":"caioo@hiboost.com.br","password":"$2b$10$m9sSpcmU97/oL6UHDNCt1OYg64EzTt7wt31RPQlIK30ZQxSb52nG2","username":"caiioooo","name":"Caio Fernandes","pais":"Brasil","language":"Portugues","favorites":[],"created":"2018-10-23T12:08:45.863Z","__v":0,"refreshToken":"icMabcQClSCWsGMp6EVq13HHal64nIiHWMWpouOWB66iof1cKHtbBpk4MTzP0c9uGgRtT67D8Uoip9snudgMvzroe0vGGTXy4XTUcgfe6VCDHKYmiM6TvFun9VuBzD49HJiD7Q2MvdF7XpZDPIq4c8Zk33J2u1CqVhZol04xa05TXO5C4fNFKf0LNjvknsfj0VWCsDcL4hS9BjOjSiM8wiGlFfVyMi43Wzp1TYpkVSHv5ZdkpD4ju54uIZGZwZ2h"} 
14:24:53.336 INFO  {"lugareAdicionados":1,"reviewsAdicionados":3,"_id":"5c052b902b198679aadcfa91","email":"caio@hiboost.com.br","password":"$2b$10$Ekouug1DVEu43fzUd/./GuoF9k3XcRxPKckloJ8xQA.MITgDjvEhq","username":"Caio Fernandes","favorites":[],"created":"2018-12-03T13:11:44.716Z","__v":0,"refreshToken":"u7G0ECgbnaOke8D3oGLJcn4snaDiDxSLoTjaxEiitANfQvNx4pjdEOs7ZfkzlHsgva3Kz0qduZteQsPs2An3jfWClZdKtZSrB8mcp5qD5K4Ze07o5fN1esXXHcmU4JTYvx70HA2QUSoELU3O2Zb4HozMzMZwS3mB9GfSicNBdji1qD6Zgx5xuZlTyoGX2X0AC68QVvgJ2YfWsekUORxWokB7mD6UBSqetuc6wafFiRabOhHzt6feKNUX3cH5DZY0"} 
17:24:49.421 INFO  {"lugareAdicionados":82,"reviewsAdicionados":84,"_id":"5bcf0f4d39b9c1ede6cdc538","email":"caioo@hiboost.com.br","password":"$2b$10$m9sSpcmU97/oL6UHDNCt1OYg64EzTt7wt31RPQlIK30ZQxSb52nG2","username":"caiioooo","name":"Caio Fernandes","pais":"Brasil","language":"Portugues","favorites":[],"created":"2018-10-23T12:08:45.863Z","__v":0,"refreshToken":"iSrhzSJkilID7hVd9oxXGtfLy3OZDqnfdtifRdb3iFGxfRSbCycfsjSjsG2jWYG8YCATlCsRjfgQ2MHlUiOriAz1DxrLCbH0VjXiV0FjKnHvSRNF2jhEKjEb7aRvfIhUuW0GeCzHhthYDXsIppHoZXrp2ewNHOfBhP3gnfkZjCCnJ4AtPUb52rrMQs9LMQGCUeeVfzhaU5AcdmdjxQlvcHPmr7EzwIop0NvwLbUO9KOgZLDl2ihHB2lCM6Be3GtV"} 
19:23:54.259 INFO  {"lugareAdicionados":2,"reviewsAdicionados":3,"_id":"5c052b902b198679aadcfa91","email":"caio@hiboost.com.br","password":"$2b$10$Ekouug1DVEu43fzUd/./GuoF9k3XcRxPKckloJ8xQA.MITgDjvEhq","username":"Caio Fernandes","favorites":[],"created":"2018-12-03T13:11:44.716Z","__v":0,"refreshToken":"pwHqLe4E17hyGswnEeiZZrCifBKbeOIT7K2bjgIuXVfqkQEXv7MYzf6vMkNGEfV4dxQwmuMOCkr5VyWQVl9QFEpXD7S7caM3BQf2TuRUYXZQfDlfcxO19hHIEQuzVGzuis6PRtkWhFM9DmxMZBo4MMdZwJUSH8HlkdkuyGVsVZOWJ19FMjxHpmzwPiRV31ZSobW1cWPkwfkM9ZrfPOKiD7hdEbDQCXhHNijZPsEOfEh9ezUScWEesaxZGOZ7budJ"} 
13:23:06.809 INFO  {"lugareAdicionados":82,"reviewsAdicionados":84,"_id":"5bcf0f4d39b9c1ede6cdc538","email":"caioo@hiboost.com.br","password":"$2b$10$m9sSpcmU97/oL6UHDNCt1OYg64EzTt7wt31RPQlIK30ZQxSb52nG2","username":"caiioooo","name":"Caio Fernandes","pais":"Brasil","language":"Portugues","favorites":[],"created":"2018-10-23T12:08:45.863Z","__v":0,"refreshToken":"pkk534i6e1u3qzbUT2I4rjAKpqjtQYEQ5QnU7H2dNOwvNRwbN34t94Uy13MBTDj8pmemWmX1fAMeYtEHhdpmL1PamQokLGSVPPkCtCJ8AnF0XkNZxQR9AMz6o6Dxi0Rq6dyvOMXLN5daYkNYKVI8k5xpnxqA0b3jgqf0N2DxGnJPMfzHqVodL7bP1x7rxxoaSVmVvxJ5Pi2Jcyap3cVE7tkNxxNCqHUYfmVypBB1mCgJfw57Oyop5QNITN6JSWks"} 
16:02:51.973 INFO  {"lugareAdicionados":82,"reviewsAdicionados":85,"_id":"5bcf0f4d39b9c1ede6cdc538","email":"caioo@hiboost.com.br","password":"$2b$10$m9sSpcmU97/oL6UHDNCt1OYg64EzTt7wt31RPQlIK30ZQxSb52nG2","username":"caiioooo","name":"Caio Fernandes","pais":"Brasil","language":"Portugues","favorites":[],"created":"2018-10-23T12:08:45.863Z","__v":0,"refreshToken":"UWUMxgoF6SWIgBXwNMh4KXRwmD5aRM7ZjfHNbT3EJFVwntkifVA764lJxvLbZUpEt9gHREFa6yeISEMPRPUUvaYdw27WDPswdHLIjrUz2qTnB0E1dPtwvmNBJKjH4YyNgllXnFAu4VvfzmAivJUkIpPcqrcDqUm2af3YgPXJhykKUGb5s1SeX22a0LllWhisrAPzmrv60WOLZN5m1YdEl9pf9BLo8oactEGDxlFZNWCiI0bP6ibL6LbLDJ4HT68U"} 
19:17:06.111 INFO   
19:17:10.473 INFO  {"lugareAdicionados":82,"reviewsAdicionados":85,"_id":"5bcf0f4d39b9c1ede6cdc538","email":"caioo@hiboost.com.br","password":"$2b$10$m9sSpcmU97/oL6UHDNCt1OYg64EzTt7wt31RPQlIK30ZQxSb52nG2","username":"caiioooo","name":"Caio Fernandes","pais":"Brasil","language":"Portugues","favorites":[],"created":"2018-10-23T12:08:45.863Z","__v":0,"refreshToken":"ujUMweOx5ncHfklFFVkFmHMx78rjQRDRl523Lt6LbzA1z8WCrxd1ITGr5j3hgdPVVGfMyElFxvJTccetisilgULmRV9aT82YODkLM5GSGWpNvdbEam1glRQEflEKZLrdCP319CrD07SF328H8rduzKAmZC1dUG5EbmVCeB7P0jr00yFl2kXFbXe2G3ayMgjPCTSVGm6gk6ntKV3GEXb5Q4vWwede5rq7HT12EqID3wC1tBUxIviulARyydvte9ud"} 
19:26:12.199 INFO  {"lugareAdicionados":21,"reviewsAdicionados":8,"_id":"5c052b902b198679aadcfa91","email":"caio@hiboost.com.br","password":"$2b$10$Ekouug1DVEu43fzUd/./GuoF9k3XcRxPKckloJ8xQA.MITgDjvEhq","username":"Caio Fernandes","favorites":[],"created":"2018-12-03T13:11:44.716Z","__v":0,"refreshToken":"78v8Mo3wabVOhBU43S1MexMZyuoWpKntZOt76LV2IfBw2NicZ6BaSHMPOgU0SYcFQ1b5hpP2GjguGv9bBRGatI3U6vQA8VStvkcV03lp4d54LQpT9EEEJKIIscvIwtBhTZBJ8GNh8d4ASFm4YzMowZQuo1Bq3MH7Gb4K9vKPnYF80rzLErn2R31pj6SF9mJ5O0nr6Eeb3sOcaqIXHwViZmeL5oljOy1vgTldHOyLOwr58vRua59zi0fDYQy3VzXf"} 
17:16:24.524 INFO  {"lugareAdicionados":83,"reviewsAdicionados":85,"_id":"5bcf0f4d39b9c1ede6cdc538","email":"caioo@hiboost.com.br","password":"$2b$10$m9sSpcmU97/oL6UHDNCt1OYg64EzTt7wt31RPQlIK30ZQxSb52nG2","username":"caiioooo","name":"Caio Fernandes","pais":"Brasil","language":"Portugues","favorites":[],"created":"2018-10-23T12:08:45.863Z","__v":0,"refreshToken":"eRJP1BNFONw1LFWMUAj9yFiuVm5nO9NLUS37toOpGaheHFN3BxcCe1CMoxKNzv1wdGdknMmG7FnYXin3NKD7yljSjrQHsbC0BozCh02onYncxdCppXcVfD0Lo9TaJWO9Yss3Ms9SGW6eBznQ8NKfQZyzOgif4opJ67b1fju1ng9TBVXN75uzrTecYEVfvNRFmpcRjrCno3lfvY0ODQ9YzfZPaajK7gRVkJXaqfANA78XNPHaIPWtrvBEO6cVoEGC"} 
18:30:23.547 INFO  {"lugareAdicionados":83,"reviewsAdicionados":85,"_id":"5bcf0f4d39b9c1ede6cdc538","email":"caioo@hiboost.com.br","password":"$2b$10$m9sSpcmU97/oL6UHDNCt1OYg64EzTt7wt31RPQlIK30ZQxSb52nG2","username":"caiioooo","name":"Caio Fernandes","pais":"Brasil","language":"Portugues","favorites":[],"created":"2018-10-23T12:08:45.863Z","__v":0,"refreshToken":"kXJfbcM4cMFjw4ZmhZ3rIczlflpOjCMYeB7riC4okl1D1guCDwJqID0NuzQ1TmE6NzzaFBm1HwajkEiENnwRQYf4o3uVUnt8s18Il0y9DVJwgnZhvwFYZKYURz7CeWLk8seLUfsjBR7SzFJCXaPfehad8XKeEmDB8i0twtuj88iwO6r3QYy82SK1PVEAAA7wKt2guLoYYCv7rAx5rPsT99nQSM2M58dwpRzmK7BQkKQaRlemOggyDQQzJvxV3VPN"} 
13:31:53.136 INFO  {"lugareAdicionados":83,"reviewsAdicionados":86,"_id":"5bcf0f4d39b9c1ede6cdc538","email":"caioo@hiboost.com.br","password":"$2b$10$m9sSpcmU97/oL6UHDNCt1OYg64EzTt7wt31RPQlIK30ZQxSb52nG2","username":"caiioooo","name":"Caio Fernandes","pais":"Brasil","language":"Portugues","favorites":[],"created":"2018-10-23T12:08:45.863Z","__v":0,"refreshToken":"g3tAdBFulCm9y35AsWlQTwgcropw7UdRYmhxozI6HN7Ay0KQAuUDxksx8Cyy8LQQ3SXPMrgWzZDoKz8AuIoNn99yJDNcTpqh09cZuz0khBx1P9ds08aKXFh9pntRD1VzpN9lTrTzg20G82qvBxmxuvxbEi1mn0NWgjEJwVfR0g21DKh6M514xJjLNeBpXp4euDsYJZjAH9yDd1XV69w5zf3rum4Q0Q7H0LEjSQvbyibh6GDulkfYoV2uuMxJpZZg"} 
17:34:30.248 INFO  {"lugareAdicionados":25,"reviewsAdicionados":13,"_id":"5c052b902b198679aadcfa91","email":"caio@hiboost.com.br","password":"$2b$10$Ekouug1DVEu43fzUd/./GuoF9k3XcRxPKckloJ8xQA.MITgDjvEhq","username":"Caio Fernandes","favorites":[],"created":"2018-12-03T13:11:44.716Z","__v":0,"refreshToken":"ZTE4bJyfYv92conZkaqUDGCsxkeDu8CbBwOJgVz3aXayeMA5OcUXJKvKM4grQqvQFimj9M37caEwTfJPKoWsHrFtPa07Xi4CuBfTUPfFtBslDR7VNDedtUDh7Zop6zXr73hLzh3TE6EaagbTB89s4DCVEAnlH2TdCtSkkJGU0uXwytMWiVwJIp5j6EANYRXqKkBPlxR2M1LDxVzPS8zSjhHEMNEJDGIuwPfGUTDNQlOrTzk57cVRrZ2hZBR03kNO"} 
12:06:09.313 INFO  {"lugareAdicionados":83,"reviewsAdicionados":86,"_id":"5bcf0f4d39b9c1ede6cdc538","email":"caioo@hiboost.com.br","password":"$2b$10$m9sSpcmU97/oL6UHDNCt1OYg64EzTt7wt31RPQlIK30ZQxSb52nG2","username":"caiioooo","name":"Caio Fernandes","pais":"Brasil","language":"Portugues","favorites":[],"created":"2018-10-23T12:08:45.863Z","__v":0,"refreshToken":"32F4BIMkKFhbIFXq4CO8NHGKGdxOLOS5MFcw0KcM3x2IDX8PE3d1ssLslyWgef4TLDR9xKUQsQRjaG8myxEZOWQgGRuJiFNsUzMpdgH9PBc2rbVH3sSr5hICuyW1nwXIw9FbCkR7BQmKFODDygHgggrZSQ5QiGx3fUq03riLL86PizdRwluDEgKnpM6gRnoR2FbonanWcDcXrEIgEJEjEwKEzvdtZ4cn8FoAKJeCeo0zSAFSnFQJrnNruhZWDILz"} 
10:06:39.766 INFO  {"lugareAdicionados":29,"reviewsAdicionados":14,"_id":"5c052b902b198679aadcfa91","email":"caio@hiboost.com.br","password":"$2b$10$Ekouug1DVEu43fzUd/./GuoF9k3XcRxPKckloJ8xQA.MITgDjvEhq","username":"Caio Fernandes","favorites":[],"created":"2018-12-03T13:11:44.716Z","__v":0,"refreshToken":"KPS2XSsOeCVa2UzL0bvzkr0G7GmEeowRmXoQBSYFJQxUDUxld2pk5wB99uBSZfVuI5GAiaxsGkjEgUjDe7bZqRDJ8kWz8KjanG9HNCw2jDWTKYCbRFcVcZZUAjiOSUVRQH9qsNpf9INjwVwkZFYbIKVYGHx0eQEi6T4HiCRmmsoQVjaCFu6CiqQdCE40AS5MqiVV8hva5Xer5GuRs6P5GlMIqnoqYNHzWp7fwOTo6nUWYkQZ7k6eNhzcqH0gkOZ3"} 
10:20:34.612 INFO  {"lugareAdicionados":30,"reviewsAdicionados":14,"_id":"5c052b902b198679aadcfa91","email":"caio@hiboost.com.br","password":"$2b$10$Ekouug1DVEu43fzUd/./GuoF9k3XcRxPKckloJ8xQA.MITgDjvEhq","username":"Caio Fernandes","favorites":[],"created":"2018-12-03T13:11:44.716Z","__v":0,"refreshToken":"QV4AnMT4rxfq0IJNiOi9IXzCCf0EtVt001TBHlckuctFzgV6rHbIvODvki78HEobmaekanfnDrmEWcNwzaqGWOT9IHmZg9c1SAaoiRirofBUngjXvU14oNw0wCDq7MvDZul7nS8sPrxXa6NJ0dfG43yKrvqnaxzMBeLNAZBwRaVCttK9a6U22eE2lVJzQZ6h6Pe5xtrzvmQialz8eWoNai7BtR4XRot7is3WompmAAYljtlxwqELpOohUFCxrnfF"} 
14:11:18.444 INFO  {"lugareAdicionados":83,"reviewsAdicionados":86,"_id":"5bcf0f4d39b9c1ede6cdc538","email":"caioo@hiboost.com.br","password":"$2b$10$m9sSpcmU97/oL6UHDNCt1OYg64EzTt7wt31RPQlIK30ZQxSb52nG2","username":"caiioooo","name":"Caio Fernandes","pais":"Brasil","language":"Portugues","favorites":[],"created":"2018-10-23T12:08:45.863Z","__v":0,"refreshToken":"DS1zx0m6Tfe2ZajmJvnd9LvJ0I53PGYeTqD1WEY6hzMrlhexWqZVZMKjBGWtZElGTvJpA7U8hADmnvuKapltua9CnEWXxA55ZGAHakVgSFFrrrIZ1Umdslmv13a7W5H17z04eJwwOUphovtwhXt0fi8e1tVGyoVjqFV3EovSB2OLxpLXeoFbbmeyjsveaPivumybxMVaFqaL8S3g8h9NipGMyni3cSbsoLNHIRAbGrRIX5czjwfZnQbfcqyWAFnw"} 
14:19:06.336 INFO  {"lugareAdicionados":30,"reviewsAdicionados":14,"_id":"5c052b902b198679aadcfa91","email":"caio@hiboost.com.br","password":"$2b$10$Ekouug1DVEu43fzUd/./GuoF9k3XcRxPKckloJ8xQA.MITgDjvEhq","username":"Caio Fernandes","favorites":[],"created":"2018-12-03T13:11:44.716Z","__v":0,"refreshToken":"f8SlEsfjVPHbzuI37KV6TVfPPHOtiVY4z1wAJ40qsQNKHXIXMAhTSMz5D9OIBLofAsGP0tjY1GGv8yVyP94UHTP2LDEoWoIAmtqFkuN6uh10JZjgElKH6JtRahnOdiFqRWBAUkKww2dW2HEUxkCG7DoBHgQofiU4gDAdD5lsuRct5sei0Pof1a29wvu35zvPNtsXLLrQCAd3rkGAw16sHrnYBIUT8MUSSIqLm0oMOei9bvRj85wPHIva0zgu7XJ7"} 
18:11:34.103 INFO  {"lugareAdicionados":0,"reviewsAdicionados":0,"_id":"5c052b902b198679aadcfa91","email":"caio@hiboost.com.br","password":"$2b$10$Ekouug1DVEu43fzUd/./GuoF9k3XcRxPKckloJ8xQA.MITgDjvEhq","username":"Caio Fernandes","favorites":[],"created":"2018-12-03T13:11:44.716Z","__v":0,"refreshToken":"kGIdbxQI2jWYoBgCUQUs33utyRoKOCncwSj4znIdX7Bi0GPZZMxfEOdKNaO9fJuH6Y95HH6zvapJDjDqZyVBwW1pKON7hchiMLZcrXtKA4VtjM4J8g2mZXhg3ozsagjaHIHYV2Z5xA2YiZyewIJM9HX3dF51wPYQOhCZbJb6WnuT8gZRwU9uc4l6EfLWiMMTvFlaVMoi3Avta738z936zTBHvnDi3FWk5vXlFRhtAReN0kQLeG3KyXT9yPoLOuUl"} 
18:43:43.359 INFO  {"lugareAdicionados":0,"reviewsAdicionados":0,"_id":"5bcf0f4d39b9c1ede6cdc538","email":"caioo@hiboost.com.br","password":"$2b$10$m9sSpcmU97/oL6UHDNCt1OYg64EzTt7wt31RPQlIK30ZQxSb52nG2","username":"caiioooo","name":"Caio Fernandes","pais":"Brasil","language":"Portugues","favorites":[],"created":"2018-10-23T12:08:45.863Z","__v":0,"refreshToken":"f8jh9klEzITRgM456W9LCOiCXcjZdEJBJRXjREoMJkKlFMMWg8TRoKK8rTbHzALYvyew6xCHWZFo3QC6zYARfy1MBTBxWgeUnjmQGQvTmFqrzeMErGdZvpoMZ3fqGIBAufarLiJnlFtz6pyfVutjfwGUSpGO6QB3EvLZL4Yp8MxV8yuocCDt9oABVmVILi40H7EYqau7OoUjRxdEaGUCB1ZvMm3MheSlQHNVkIzeXgcMYTL0ZKFa7csUKzhChxGh"} 
19:24:03.731 INFO  {"lugareAdicionados":0,"reviewsAdicionados":0,"_id":"5bcf0f4d39b9c1ede6cdc538","email":"caioo@hiboost.com.br","password":"$2b$10$m9sSpcmU97/oL6UHDNCt1OYg64EzTt7wt31RPQlIK30ZQxSb52nG2","username":"caiioooo","name":"Caio Fernandes","pais":"Brasil","language":"Portugues","favorites":[],"created":"2018-10-23T12:08:45.863Z","__v":0,"refreshToken":"9tGkRBvYYjsNU6r3YQ7eFfra1GJKt7kl8ZrVUvkHOjJD3rncBGwF8ZdmDQLII8sArEwxB0pIzzKuGuTovlOyH1KA13J3bhmaCW3HKbTrDiGVyHGy0cqwP5Kipm3DAY9e1RcogCSXUN3USTEcH8fGUldMwZwjhFbrxjuq1hkeL99M0KidFHUoCLHZDgACfOrLjz7RPzdBGDwhMIMjf6ow1ZKzOKv1CPZ3eM6jR70IWdXtsoCOvqn1LN7ZeBxYPOMQ"} 
19:33:56.975 INFO  {"lugareAdicionados":4,"reviewsAdicionados":0,"_id":"5c052b902b198679aadcfa91","email":"caio@hiboost.com.br","password":"$2b$10$Ekouug1DVEu43fzUd/./GuoF9k3XcRxPKckloJ8xQA.MITgDjvEhq","username":"Caio Fernandes","favorites":[],"created":"2018-12-03T13:11:44.716Z","__v":0,"refreshToken":"2Z8I1oR2eHhb2LhmRqssIYkLZqOKahnOA8nDeBBNL7cZ4rK5QHgSoag9ncuGgfWAyL3zuffwpe7tvWxubuaInVn2Ht3JOr9bmHqPveOshmahtTK5B8L6c8dgYmq46MrWpojBU2zBPhqzu934BhNx9FnhyvmkKUdJJs4Xc8Lp2c1JbIZ6BXSYiPllcfO3veRyZ5LQLcX4FZUfg5Cdc1MjqGYJXT3cX5xTPayGcNWfoDie8MTL9VVJ37XXF2PS2SYm"} 
20:40:17.089 INFO  {"lugareAdicionados":4,"reviewsAdicionados":0,"_id":"5c052b902b198679aadcfa91","email":"caio@hiboost.com.br","password":"$2b$10$Ekouug1DVEu43fzUd/./GuoF9k3XcRxPKckloJ8xQA.MITgDjvEhq","username":"Caio Fernandes","favorites":[{"rating":{"$numberDecimal":"0"},"_id":"5c22a257966cad0958cd2254","placeId":"5c2292f4eabfb897b6001f2c","data":"2018-12-25T21:34:15.701Z"}],"created":"2018-12-03T13:11:44.716Z","__v":0,"refreshToken":"c8V9crXV15JhhIxke26TUyPkULSZDv5kqqVL1aqxcK5P3kM3qqiD8GiazCV1pByhsYnL2vmAFJV2TMGHpuc4d77zFZJF2kH0oK6qA6ezZif9fw87DM8pSkGeBJWDfKmFwjegNJo73MiCgJPUh0VlZFXwJ7cuF8nzGdd9CnjWSukyNYRfhWRazqe0s2pSZ2QKOFBX95qEcvjDp8K6TvaE1xA2NiuiGzlZd7V73LtK4hWYr64nAVqn7IgSY7JGMWTY"} 
09:02:02.981 INFO  {"lugareAdicionados":6,"reviewsAdicionados":1,"_id":"5c052b902b198679aadcfa91","email":"caio@hiboost.com.br","password":"$2b$10$Ekouug1DVEu43fzUd/./GuoF9k3XcRxPKckloJ8xQA.MITgDjvEhq","username":"Caio Fernandes","favorites":[{"rating":{"$numberDecimal":"0"},"_id":"5c22a257966cad0958cd2254","placeId":"5c2292f4eabfb897b6001f2c","data":"2018-12-25T21:34:15.701Z"}],"created":"2018-12-03T13:11:44.716Z","__v":0,"refreshToken":"LCyBNFrtkhpubaEye4k7tAbDXJTfwxzwK4GtIn9N2pLt4dSDec5xuhtEeYkBbG2KPJog4Y7MIwD6fNBlzyoIYkhyjk6cD9y2olMvWlaX2FHcMllOpenq0NmvJTGbL4MZ3FUrpBnbYLuGgbw5Cq7nuNg9DJhn4Kn4zRs1gFBTzWQtbpdWbDfcLCUfUWA0LNrsfDL7prJjQqICFW0OVrroU1EGIOFH7rJhDvB2cNPnvZAQZObXuYVMB4VqQVw4sUN2"} 
09:25:32.070 INFO  {"lugareAdicionados":6,"reviewsAdicionados":1,"_id":"5c052b902b198679aadcfa91","email":"caio@hiboost.com.br","password":"$2b$10$Ekouug1DVEu43fzUd/./GuoF9k3XcRxPKckloJ8xQA.MITgDjvEhq","username":"Caio Fernandes","favorites":[{"rating":{"$numberDecimal":"0"},"_id":"5c22a257966cad0958cd2254","placeId":"5c2292f4eabfb897b6001f2c","data":"2018-12-25T21:34:15.701Z"}],"created":"2018-12-03T13:11:44.716Z","__v":0,"refreshToken":"YAaP5deFArSw1GUHqDde1PpPT64Ww67yZC2a2HBMgEx7PG6f1ysXnffoqkaVA2GOJ106HrHRQzYRgDdhssCk5MplMRlsQv2FrIfqSRKUQim81hzIrXVFxuDtORioiyM8hBz95jDmAdzrziHtSfCxgTYHsAPbaKQdh4OpvKPQgxd8uwBbv9wGRYMwC8RClJlQ4DRJVrwtmuPB2snTWMamgCApUvPkblNxrsQdJPY5MvGnun869X0TDn0bQ18MGNML"} 
09:25:56.983 INFO  {"lugareAdicionados":6,"reviewsAdicionados":1,"_id":"5c052b902b198679aadcfa91","email":"caio@hiboost.com.br","password":"$2b$10$Ekouug1DVEu43fzUd/./GuoF9k3XcRxPKckloJ8xQA.MITgDjvEhq","username":"Caio Fernandes","favorites":[{"rating":{"$numberDecimal":"0"},"_id":"5c22a257966cad0958cd2254","placeId":"5c2292f4eabfb897b6001f2c","data":"2018-12-25T21:34:15.701Z"}],"created":"2018-12-03T13:11:44.716Z","__v":0,"refreshToken":"OMpc2Gur919nQZwposIndW6re9MnfBBoxQKwv1IcAyldgc0TgH2CF6IM17YWI3kBSBdkOcyKbAClCRGIOoRFIf5I2VR5O657W4Y3AQJxWsPytyfNFNvbvLAEUNO2ItsV7ph5M3ruwirtHACF8rnFd8DWmBeQy8gUMxy7MEQcdl61QcTrqDG25Dt5092jcSQaZVmvRRRQT8VNzNK7XxPtxjEdqmj0cy3FSSLO6DpFvnF8SkwzXJa170GlKuBOVT0r"} 
19:28:19.473 INFO  {"lugareAdicionados":0,"reviewsAdicionados":0,"_id":"5c052b902b198679aadcfa91","email":"caio@hiboost.com.br","password":"$2b$10$Ekouug1DVEu43fzUd/./GuoF9k3XcRxPKckloJ8xQA.MITgDjvEhq","username":"Caio Fernandes","favorites":[{"_id":"5c238da7db604dd589d38c91","placeId":"5c22bab4eabfb897b6001f43","data":"2018-12-26T14:18:15.855Z"},{"_id":"5c2397a4db604dd589d38c94","placeId":"5c2292f4eabfb897b6001f2c","data":"2018-12-26T15:00:52.950Z"}],"created":"2018-12-03T13:11:44.716Z","__v":0,"refreshToken":"WoluhiXAZ5UmfposItxcaHxXFsQA2BskevYLJWbZ3xdWatYRAMmENgOL1nXEkJhSvCP5TJi7ysKOZsrNU32fgv4f2Ul6hPZnS1IFUDk6OELFdfTIx7ILbilBbLnwhRzYC3qSQm9kxAYT1l0Iq8zjpODPQ1otssl24cHY6XDVtpSKlKqQuXM9uAciUaGyZxibkagDW8koz4GOYRw34LqzvoKV0lmBgmU0hbZIaJIov7aAspGyxrGxTqRUOWUj2NxU"} 
08:24:25.537 INFO  {"lugareAdicionados":4,"reviewsAdicionados":0,"_id":"5c052b902b198679aadcfa91","email":"caio@hiboost.com.br","password":"$2b$10$Ekouug1DVEu43fzUd/./GuoF9k3XcRxPKckloJ8xQA.MITgDjvEhq","username":"Caio Fernandes","favorites":[{"_id":"5c238da7db604dd589d38c91","placeId":"5c22bab4eabfb897b6001f43","data":"2018-12-26T14:18:15.855Z"},{"_id":"5c2397a4db604dd589d38c94","placeId":"5c2292f4eabfb897b6001f2c","data":"2018-12-26T15:00:52.950Z"},{"_id":"5c241feb7e8afb1970692085","placeId":"5c23f2df7e8afb197069207a","data":"2018-12-27T00:42:19.304Z"}],"created":"2018-12-03T13:11:44.716Z","__v":0,"refreshToken":"ruM3yObrdhv1yjdgKIiQU3lKHuP2Z37g8GE6P9h1XLx0HuVhjLnM9lgU15RE1RoVcUCQJ5kqyjAZx32MolQnWi6vM3Nt4TGIpm4MPPdzsWJeJ5lgzmysgzeLZcICcxcggosg1fYpMaxgkZQov3VMyP72xRp3Ps7LD1JINkCFaVMyqsvSEqWiCEirfS3c3SqpPIyw8mIVPXj9E1e7SRnWhl0uaMeD808PaVWCGgNaAXbzHllw6ZyTwalCV2eEphGx"} 
23:49:58.803 INFO  {"lugareAdicionados":4,"reviewsAdicionados":2,"_id":"5c052b902b198679aadcfa91","email":"caio@hiboost.com.br","password":"$2b$10$Ekouug1DVEu43fzUd/./GuoF9k3XcRxPKckloJ8xQA.MITgDjvEhq","username":"Caio Fernandes","favorites":[{"_id":"5c24b4c19df20ca5ce919057","placeId":"5c23f28a7e8afb1970692077","data":"2018-12-27T11:17:21.308Z"}],"created":"2018-12-03T13:11:44.716Z","__v":0,"refreshToken":"f0LVy55THpn1NStz3r1QLE0Wsgb3Uw1p5gWk7r7DmVCCPj8nScbqtR4GbLCyQN8yGp0Y90OgYXdrDIkx1LECHdWGcrEPXbKKVKMXb8ZtBzZ4tS92ihVdXhwzlVJ71pBavTI0UbsYAUjK360gtL5XXh4kaQNR6YA9zHlOqjz2QGDCTYx76OBp14ob9XWqWMCIKcCmCQww0zLrUldftCo5dgKsMrqCV8wJNKl2wvZFSiUS0zGCCB3DRHYz2ULiLVIB"} 
20:28:46.250 INFO  {"lugareAdicionados":6,"reviewsAdicionados":2,"_id":"5c052b902b198679aadcfa91","email":"caio@hiboost.com.br","password":"$2b$10$Ekouug1DVEu43fzUd/./GuoF9k3XcRxPKckloJ8xQA.MITgDjvEhq","username":"Caio Fernandes","favorites":[{"_id":"5c24b4c19df20ca5ce919057","placeId":"5c23f28a7e8afb1970692077","data":"2018-12-27T11:17:21.308Z"},{"_id":"5c2581ec9df20ca5ce91905b","placeId":"5c2581919df20ca5ce919059","data":"2018-12-28T01:52:44.105Z"}],"created":"2018-12-03T13:11:44.716Z","__v":0,"refreshToken":"QMOGf6PkQ5KaNSf8GsSOb6EfbCkVcXLTUDn0U8Fnkg4oveMI7xI2KFUsdvhQXCErgepk8DlXbjLTxFQyhlhOEG9f9yz0LMLmka9Vb1GwCHpXHPB3ls2sJ9xwaks5RIsD4Udn1RBSRfS8bulDHmKCXanYftSzMs0VUNH7ak3ztON71qlzsuCRGH3EELDJZIzb9bCSHMfOBi3LpMs1lQ4OQJ35AEk93wsHH2pYGVucIdcGpDXG8cqv9zUENCKEYg3B"} 
21:37:00.918 INFO  {"lugareAdicionados":10,"reviewsAdicionados":4,"_id":"5c052b902b198679aadcfa91","email":"caio@hiboost.com.br","password":"$2b$10$Ekouug1DVEu43fzUd/./GuoF9k3XcRxPKckloJ8xQA.MITgDjvEhq","username":"Caio Fernandes","favorites":[{"_id":"5c24b4c19df20ca5ce919057","placeId":"5c23f28a7e8afb1970692077","data":"2018-12-27T11:17:21.308Z"},{"_id":"5c2581ec9df20ca5ce91905b","placeId":"5c2581919df20ca5ce919059","data":"2018-12-28T01:52:44.105Z"}],"created":"2018-12-03T13:11:44.716Z","__v":0,"refreshToken":"3VOT9c1ibdJz3J8ZHohteBUkifA8DSpM7zl5xPfFTQIgjOaM5mqFrcVL824BT98kIhZbTNTe8TSq8PJKMqS6sJQ7v18XOr3rXIqKuxumma26NKEkRnu9wHDjWVQ6nf1FMpeKZwDyrPqIDIWvybwXmBAu2eZd4zc6QWZFr4Mffl5IEwrhsd68cPfN8r073knp77t5aABm0q1gio9yvRezb9jzcDe2uT4nncMnvbYgKFIOqYofxYkIbjpFcjg4Turp"} 
21:37:04.579 INFO  {"lugareAdicionados":10,"reviewsAdicionados":4,"_id":"5c052b902b198679aadcfa91","email":"caio@hiboost.com.br","password":"$2b$10$Ekouug1DVEu43fzUd/./GuoF9k3XcRxPKckloJ8xQA.MITgDjvEhq","username":"Caio Fernandes","favorites":[{"_id":"5c24b4c19df20ca5ce919057","placeId":"5c23f28a7e8afb1970692077","data":"2018-12-27T11:17:21.308Z"},{"_id":"5c2581ec9df20ca5ce91905b","placeId":"5c2581919df20ca5ce919059","data":"2018-12-28T01:52:44.105Z"}],"created":"2018-12-03T13:11:44.716Z","__v":0,"refreshToken":"Kg1Qzpc5IXAxrXgZBGCwNF7uMEQUtumbdja40NbKtCSqu9zdRt9J1pEfhBVqoWaRHmCAOVsRvemUbp88hO9oaQMtVxcUNmow8oU3WnLAGkv2hvI5gtDAoaUbzlCtLBjosZATUFOSbBRG0sOLre22STHJoIYkPyxIUSTulEX0ZMvcDexoNPv5yUnJPW8kWiFGQhZxcAhPjH5Xh2AM6vtudDZ9dXCRTPj7Ks5qvNO24OqQjLcs3Fkj6eM2HPt0CxOX"} 
00:30:15.942 INFO  {"lugareAdicionados":0,"reviewsAdicionados":0,"_id":"5c052b902b198679aadcfa81","email":"caioo@hiboost.com.br","password":"$2b$10$Ekouug1DVEu43fzUd/./GuoF9k3XcRxPKckloJ8xQA.MITgDjvEhq","username":"Team Move","favorites":[],"created":"2018-12-03T13:11:44.716Z","__v":0,"refreshToken":"d0XSW3LKpNIJOg0BSez2prIX7hvQY3qR72zNLwYjlfMkq4WcxpejZsVe6R5cRyfH3hxKI1tocXRfA6YfUMEeEhE0s8IUXJEfMbML0I3ulNQvQEu3QSptmp5xF5pnPCMet0rqsjEnchCHhT8Uvvi8uROSp6Q5EpACn2fiMQHIon3xnFEL6gLbyJnVqQdTx8zvkqIHhSvP1yQdoXeSeCcpogWKFRsEIqktT0UrVgZzhiMEVlBhZQgCAb9oRQKvIJHe"} 
09:19:31.631 INFO  {"lugareAdicionados":0,"reviewsAdicionados":0,"_id":"5c052b902b198679aadcfa91","email":"caio@hiboost.com.br","password":"$2b$10$Ekouug1DVEu43fzUd/./GuoF9k3XcRxPKckloJ8xQA.MITgDjvEhq","username":"Caio Fernandes","favorites":[],"created":"2018-12-03T13:11:44.716Z","__v":0,"refreshToken":"d0XSW3LKpNIJOg0BSez2prIX7hvQY3qR72zNLwYjlfMkq4WcxpejZsVe6R5cRyfH3hxKI1tocXRfA6YfUMEeEhE0s8IUXJEfMbML0I3ulNQvQEu3QSptmp5xF5pnPCMet0rqsjEnchCHhT8Uvvi8uROSp6Q5EpACn2fiMQHIon3xnFEL6gLbyJnVqQdTx8zvkqIHhSvP1yQdoXeSeCcpogWKFRsEIqktT0UrVgZzhiMEVlBhZQgCAb9oRQKvIJHe"} 
15:25:04.913 INFO  {"lugareAdicionados":13,"reviewsAdicionados":5,"_id":"5c052b902b198679aadcfa81","email":"caioo@hiboost.com.br","password":"$2b$10$Ekouug1DVEu43fzUd/./GuoF9k3XcRxPKckloJ8xQA.MITgDjvEhq","username":"Team Move","favorites":[{"_id":"5c279ad69df20ca5ce919074","placeId":"5c26dfab9df20ca5ce919071","data":"2018-12-29T16:03:34.488Z"}],"created":"2018-12-03T13:11:44.716Z","__v":0,"refreshToken":"Qfufxol7NKNF0D3RKWzI7oaVfSwVLk91O1q18DefYHTGqMgPjunn6M5m9sLJPZvqNGGk3u5YRt0MNVeClbDslI6Y0PpuI43c4Rf6LPHmSH2rQdo4O63KFYZHn7R2NNC8OGyju9HNQqQpqKuAh9dqkH9Cjsh4ejzIjIM1wDq897xsTIQL3ktPXsAxYROg9kFS0ufphMu1RKV5uRTPmH3fEFxLif35XJboMob2I5iJ1ym2xKPRHdpEIsMNPtW92MGt"} 
18:04:26.865 INFO  {"lugareAdicionados":13,"reviewsAdicionados":5,"_id":"5c052b902b198679aadcfa81","email":"caioo@hiboost.com.br","password":"$2b$10$Ekouug1DVEu43fzUd/./GuoF9k3XcRxPKckloJ8xQA.MITgDjvEhq","username":"Team Move","favorites":[{"_id":"5c279ad69df20ca5ce919074","placeId":"5c26dfab9df20ca5ce919071","data":"2018-12-29T16:03:34.488Z"}],"created":"2018-12-03T13:11:44.716Z","__v":0,"refreshToken":"n8XtswAUeeBtDUwgbYfB1eiomw14q3fs1qATV5jegR2iPGQNgGq20H459VMlTKHL16I9HDl1Wa2GpNsyn2iukjuahDgB9fPXBBtsQcdg3vluAnGRcLiN15Z5MGQoG49dEaW0LYG74L9Mh9wfeYrXo7seXwv6lXizOiPRzVmhyJZtr2gUvzF3pCZqtWgYUIVwDFgfipC8qd1SiLvUARDLm52O7X9sZKSxR9r7ThY1PuA42y3WUca83bJFnV8xKpb6"} 
09:59:43.000 INFO  {"lugareAdicionados":0,"reviewsAdicionados":3,"_id":"5c052b902b198679aadcfa91","email":"caio@hiboost.com.br","password":"$2b$10$Ekouug1DVEu43fzUd/./GuoF9k3XcRxPKckloJ8xQA.MITgDjvEhq","username":"Caio Fernandes","favorites":[{"_id":"5c28aa07faac9eba4e3cb7d0","placeId":"5c27a7439df20ca5ce91907c","data":"2018-12-30T11:20:39.342Z"}],"created":"2018-12-03T13:11:44.716Z","__v":0,"refreshToken":"cGCBeUomn9YzBl15tiUzdkmkVGFuGDB4m6BLErDLXKhZVbzUEnA5lmp4Jsgql2CoLk2sGQZXczu7hmOAoT5TWarWd7Su014prp3IxmVyL3eVfvGzVmdTuloUjxYuL3xAwjmZVFw2t5EVK3Uu4WxXOB17PKnYPMcHBUX0g1FCrpDTFQfOXSdRAsIU0xDdAIORu7tLLyFc4yXMWMDsNQy1iL8TGiLbWyLbmn4tnTYPPDw2ro39yeVOWEaxyOqazrO1"} 
11:46:07.874 INFO  {"lugareAdicionados":0,"reviewsAdicionados":0,"_id":"5c052b902b198679aadcfa80","email":"caiooo@hiboost.com.br","password":"$2b$10$Ekouug1DVEu43fzUd/./GuoF9k3XcRxPKckloJ8xQA.MITgDjvEhq","username":"Usuario com nome gigante","favorites":[],"created":"2018-12-03T13:11:44.716Z","__v":0,"refreshToken":"JiM4cYnAT4JJPDVuNO9gMBARmwSbwwDcMidjSSB7ptYaUhv8aLVWKTL3ZC603NL7QjDb3g7CEq74L36LysT4Oa0xycVFTL6UlBTkuvRw3R6fQ2P9SDfRPpMjQHuJ8qEEFQYHQcJD3Td5fcE8TRUWPJJ7DRDL4oyOtmTGDl7v3VqhYHNqho6lqLsYQSobZ5DphprHMvs2ynKYe8KJYOPHCKtJDREXO3SujzyekJAeDpTmZ1ySgEJEuEyM9DG79mEp"} 
15:30:09.225 INFO  {"lugareAdicionados":0,"reviewsAdicionados":1,"_id":"5c052b902b198679aadcfa80","email":"caiooo@hiboost.com.br","password":"$2b$10$Ekouug1DVEu43fzUd/./GuoF9k3XcRxPKckloJ8xQA.MITgDjvEhq","username":"Usuario com nome gigante","favorites":[],"created":"2018-12-03T13:11:44.716Z","__v":0,"refreshToken":"Vrk6ctAo9NQIaolPzNYKdJfSFpm8gzMOI4tjKCcyjol7pk7gznsSHT0iiCEy6JhRcVHTSr8Wtrdi5sRI3jKlkrdnR8SwNA40W4gw3PM8xpVjsX5MTT15qEyoRkt1zs4VdXIJfxUWvCww3rloEoqSapX897Iq5jc9Y0IwzEs65bLOv8oMep0XTHfmVBoXRCHorgPy7DWkcwfWGkh7QSvr0IiQZVN4r4YVCqrmg8yezfhs9TSgsC0MsTtmjgbXbPZM"} 
15:40:28.019 INFO  {"lugareAdicionados":15,"reviewsAdicionados":7,"_id":"5c052b902b198679aadcfa81","email":"caioo@hiboost.com.br","password":"$2b$10$Ekouug1DVEu43fzUd/./GuoF9k3XcRxPKckloJ8xQA.MITgDjvEhq","username":"Team Move","favorites":[{"_id":"5c279ad69df20ca5ce919074","placeId":"5c26dfab9df20ca5ce919071","data":"2018-12-29T16:03:34.488Z"}],"created":"2018-12-03T13:11:44.716Z","__v":0,"refreshToken":"Jsb6kUrCczNwwNA7FTashaOeGZAHYLQ0Chff4ml7fnKTGyl8L4kqvBnOvAyYSl35fs6uGZuXrFJPwUocAxiSgrr2hGehf2dk2jgNrnJcYU2q7Dy8yLdZLGpUTBs8lrrRo27uCfmLP43l3G16YT0QSvssL1w8wfj7aA7vVraHqFAtsH1uBWze3RgkxhyQHE4WEziri42rKflDTlvlZWFlDnrTSgqN4MyqjJpwemnBy89XsccclCGdYWUZQ0M0B87m"} 
09:53:46.700 INFO   
09:53:46.701 INFO   
10:06:40.324 INFO  {"lugareAdicionados":0,"reviewsAdicionados":3,"_id":"5c052b902b198679aadcfa91","email":"caio@hiboost.com.br","password":"$2b$10$Ekouug1DVEu43fzUd/./GuoF9k3XcRxPKckloJ8xQA.MITgDjvEhq","username":"Caio Fernandes","favorites":[{"_id":"5c28aa07faac9eba4e3cb7d0","placeId":"5c27a7439df20ca5ce91907c","data":"2018-12-30T11:20:39.342Z"}],"created":"2018-12-03T13:11:44.716Z","__v":0,"refreshToken":"TgKvmReIlQuAtAs2mlnIWz5XES5t9bgTaPzOk4djIQOVzfM8sZfk8OEP9CAnFGukElEF6l3Tk4CAbq1roZk0mIaoIRlM7DLinSuEpzOmyhmvelyXXx17QUjD1nBVsuTrcCEOB2mzDRVDt2USlieyJOCVuKbOpdwC182BN6CEWr8xLlVUJFqrVSeECb2xe3cLcKDXEaAVuxLLsvvJpG6Tib0aTum7hsaIwpLKSNuWA5xXGIRp27wg6wXCoeHH7Bm4"} 
12:47:06.993 INFO  {"lugareAdicionados":0,"reviewsAdicionados":0,"_id":"5c2b7d6a4e2a3b11c3c81f5b","email":"caiioo@hiboost.com.br","password":"$2b$10$/t691I7ti1/VHSUHR4Ld3.N7sm9JJ4omaztTfnHPeRckVXQbyqsV2","username":"Mia Fernandes","favorites":[],"created":"2019-01-01T14:47:06.784Z","__v":0} 
12:49:08.892 INFO  {"lugareAdicionados":0,"reviewsAdicionados":0,"_id":"5c2b7de44e2a3b11c3c81f5c","email":"caiiooo@hiboost.com.br","password":"$2b$10$6q7HqdcKYuX27Mo5GFFkMuzttXKxugLP6Pl9KotJwI3UPQjyq1Lm6","username":"Mia Fernandes","favorites":[],"created":"2019-01-01T14:49:08.599Z","__v":0} 
12:50:00.589 INFO   
12:50:20.594 INFO  {"lugareAdicionados":0,"reviewsAdicionados":0,"_id":"5c2b7e2c4e2a3b11c3c81f5d","email":"cai@hotmail.com","password":"$2b$10$p41stGqmKX5JJi9npDXeqOkcPGfBvYKOA63jcOdtKmXMRNjBrEIPO","username":"Mia Fernandes","favorites":[],"created":"2019-01-01T14:50:20.420Z","__v":0} 
12:51:39.154 INFO  {"lugareAdicionados":0,"reviewsAdicionados":0,"_id":"5c2b7e7a4e2a3b11c3c81f5e","email":"caii@hotmail.com","password":"$2b$10$pNEIKNuO9R6xPuXpqAsfi.CI6I2JPtFcfKMaWRvQQOFehT3TJ3vsS","username":"Mia Fernandes","favorites":[],"created":"2019-01-01T14:51:38.940Z","__v":0} 
12:53:42.400 INFO  {"lugareAdicionados":0,"reviewsAdicionados":0,"_id":"5c2b7e7a4e2a3b11c3c81f5e","email":"caii@hotmail.com","password":"$2b$10$pNEIKNuO9R6xPuXpqAsfi.CI6I2JPtFcfKMaWRvQQOFehT3TJ3vsS","username":"Mia Fernandes","favorites":[],"created":"2019-01-01T14:51:38.940Z","__v":0,"refreshToken":"HzXYzhHG1C3C8ZFp23NyQEbv3BeZnxkLX8WuEr23pl0Y4yZG7KkDSXhsFVrHEbsWVN4hciKmBOr4sxm3uQDpbDxEV5rwf9cZr9N3CfgnF7EwCDMmZwIDmtSAuplfFs5IcaHrMsxhqd56br9GqOytlUHsb1DlCJJ3MRz8boJCOiZikltdsoebEe6GEOfrM8R0L5iFLWXO1i5jtnerx9O69d3SC7zb1SIS8DWWFNoyjMwobrWmERdBog3t58qCY153"} 
12:53:51.001 INFO  {"lugareAdicionados":0,"reviewsAdicionados":0,"_id":"5c2b7efe4e2a3b11c3c81f5f","email":"cadfii@hotmail.com","password":"$2b$10$ZL3Ncg7ZMtMfIa76Hd/CmeAghfbqB0UARNwcRfIwaKmV.cgClPkc6","username":"Mia Fernandes","favorites":[],"created":"2019-01-01T14:53:50.899Z","__v":0} 
13:26:40.957 INFO  {"lugareAdicionados":0,"reviewsAdicionados":0,"_id":"5c2b7e7a4e2a3b11c3c81f5e","email":"caii@hotmail.com","password":"$2b$10$pNEIKNuO9R6xPuXpqAsfi.CI6I2JPtFcfKMaWRvQQOFehT3TJ3vsS","username":"Mia Fernandes","favorites":[],"created":"2019-01-01T14:51:38.940Z","__v":0,"refreshToken":"HzXYzhHG1C3C8ZFp23NyQEbv3BeZnxkLX8WuEr23pl0Y4yZG7KkDSXhsFVrHEbsWVN4hciKmBOr4sxm3uQDpbDxEV5rwf9cZr9N3CfgnF7EwCDMmZwIDmtSAuplfFs5IcaHrMsxhqd56br9GqOytlUHsb1DlCJJ3MRz8boJCOiZikltdsoebEe6GEOfrM8R0L5iFLWXO1i5jtnerx9O69d3SC7zb1SIS8DWWFNoyjMwobrWmERdBog3t58qCY153"} 
13:28:56.509 INFO   
13:33:07.744 INFO  {"lugareAdicionados":0,"reviewsAdicionados":0,"_id":"5c2b88339c01e64fd70ad0cd","email":"cak@hotmail.com","password":"$2b$10$aqMxx6/q.XwrgoONfE.OW.qhC/cr.ai5mPQlY3kdtT6nE7E57tAT6","username":"Caio de la praia","favorites":[],"created":"2019-01-01T15:33:07.008Z","__v":0} 
00:36:51.678 INFO  {"lugareAdicionados":0,"reviewsAdicionados":3,"_id":"5c052b902b198679aadcfa91","email":"caio@hiboost.com.br","password":"$2b$10$Ekouug1DVEu43fzUd/./GuoF9k3XcRxPKckloJ8xQA.MITgDjvEhq","username":"Caio Fernandes","favorites":[{"_id":"5c28aa07faac9eba4e3cb7d0","placeId":"5c27a7439df20ca5ce91907c","data":"2018-12-30T11:20:39.342Z"}],"created":"2018-12-03T13:11:44.716Z","__v":0,"refreshToken":"5vsXZgJr3b4GAQp6hhFxF1Q3CUpm7SHnE8c0b8K0eSnYHJCP0WE5LJLBXfr7QodkASfX0FQsIs6pqRMSIznoTGiRDGuIXC2Ki1PTiARlK00uRGvTaw2CUdKlQYeWARW6M6vg0WYIP1PIChIQQjXoXWokajQAycaKbTM7gqW47KnH1yk7SgfZfRbY6gmpylr5HRameTQUY2ZT4xAvOVGRta9hANXlCbH5LJhkZzrgcOsbdhHRlGNPerJm0bIL7yis"} 
02:12:25.276 INFO  {"lugareAdicionados":0,"reviewsAdicionados":0,"_id":"5c2c3a281492fbe30a7dd831","email":"usurio@123.com","password":"$2b$10$mBxonp7gOb9eH6.c3f66refh9pRUVqRqs/pVScqzSp.PSWqHUXmw.","username":"Usuário","favorites":[],"created":"2019-01-02T04:12:24.083Z","__v":0} 
08:56:26.624 INFO  {"lugareAdicionados":0,"reviewsAdicionados":0,"_id":"5c2b7de44e2a3b11c3c81f5c","email":"caiiooo@hiboost.com.br","password":"$2b$10$6q7HqdcKYuX27Mo5GFFkMuzttXKxugLP6Pl9KotJwI3UPQjyq1Lm6","username":"Mia Fernandes","favorites":[],"created":"2019-01-01T14:49:08.599Z","__v":0,"refreshToken":"Qlol9BAXlbpHgJTvwOZMjq38n2TtGHwCS9LgGeF8gGWeccwJTZSWTKLY9w0JkyrBGe7qQVDXVt3g8J20LkielvOu2KtlRtHajX14mu3NMRpPNRdEgcOx3ahww49yoryENfcxbaqgXQRyq3aHM8g6vjfKkZqQK9Yf6lg9Dl4J8dFVaGl2JpF5dCv7JpApRWFSOkgnAQP17iYFxwYdrLEZtnkhtwTvs2jr05PeGRU9Mgc7b4olf82PRFAyegtTarBb"} 
17:37:47.599 INFO   
17:37:53.320 INFO  {"lugareAdicionados":1,"reviewsAdicionados":1,"_id":"5c2b7de44e2a3b11c3c81f5c","email":"caiiooo@hiboost.com.br","password":"$2b$10$6q7HqdcKYuX27Mo5GFFkMuzttXKxugLP6Pl9KotJwI3UPQjyq1Lm6","username":"Mia Fernandes","favorites":[],"created":"2019-01-01T14:49:08.599Z","__v":0,"refreshToken":"Cq8Yw06HTDJUewZjFWpgEM3yndn2LLSesDG1GHjpma1Eq1vUPQm6B7ksB7Zd6iiH4KA8sLwFMBvj2Xk17LYiaUbw3QXDmQpwg1cJYX8FWa5H2MRWBVGAOsF6JcNdB0sJ9Zt0IAiLH3eKZkwmPmI8qKFnDBrYjnEGbktVJyXgYewYyL3UHBBkzsuyo21LtvmLDumvmBVHJEvm3mbekhDyRjPJetfFiJ53l6srzY1tCbie4jZSxfdPSgrhYp1Csbtc"} 
10:46:33.007 INFO  {"lugareAdicionados":0,"reviewsAdicionados":0,"_id":"5c2b7d6a4e2a3b11c3c81f5b","email":"caiioo@hiboost.com.br","password":"$2b$10$/t691I7ti1/VHSUHR4Ld3.N7sm9JJ4omaztTfnHPeRckVXQbyqsV2","username":"Mia Fernandes","favorites":[],"created":"2019-01-01T14:47:06.784Z","__v":0,"refreshToken":"88ZcWNDAXOWzNOhueQhrcBnlhQn48ch9w4heEp5MItI6b6bf6muU9mU7pSh1EHu3K5EGLaTnEliIH7iBhwEotKN1o70TZA950xUR1FoASYv0Y9hLHjSB2gCOyVTAFeXfKH51Al5GyO8KzZykJFxit6XvjJswjPUCXpou6sy8BvmSYTmG633l4U5LtdBZ25MUKt0JdaKGy1Pr8EeSECamXxsrwNDgpU8wIdHQtAjXnKlsvYmxEL0rJwb1umsniK9S"} 
17:46:19.952 INFO   
17:46:25.940 INFO   
10:59:19.301 INFO  {"lugareAdicionados":10,"reviewsAdicionados":3,"_id":"5c052b902b198679aadcfa91","email":"caio@hiboost.com.br","password":"$2b$10$Ekouug1DVEu43fzUd/./GuoF9k3XcRxPKckloJ8xQA.MITgDjvEhq","username":"Caio Fernandes","favorites":[{"_id":"5c28aa07faac9eba4e3cb7d0","placeId":"5c27a7439df20ca5ce91907c","data":"2018-12-30T11:20:39.342Z"}],"created":"2018-12-03T13:11:44.716Z","__v":0,"refreshToken":"9cYfkLVMx3zLTsYsvP6n0sjwGCcvPZ2bLsuhjvVWxXp92o7jvFXkEZYfzwvP4vVKLgPRRYsGkh2MSrU6zmUaN2PuNsgVrAbmAacVwy6NGSGrUr9WaLKReU8KvvRZJSwiVlE8s5yK69qVky9aDrcmivGPKYmyOS5gj4VQzD1Kwj85W0rUenF8yZbGp0ralNaeRtpms0pKQMLv3IvpVYVQ99VqvAURBlJ49Tn2ik1XH1iN9bl44yseNLHIsFq7KDtj"} 
12:37:08.996 INFO  {"lugareAdicionados":0,"reviewsAdicionados":0,"_id":"5c30c11403806f0dafc36315","email":"caiiio@hiboost.com","password":"$2b$10$lKBnB8VQEx1W8jvxuc1DNeGuvtq41SSQbVosf7HcaUKv1QbuoKI9W","username":"Charlotte oliveira","favorites":[],"created":"2019-01-05T14:37:08.884Z","__v":0} 
22:59:47.442 INFO   
22:59:49.889 INFO   
22:59:57.361 INFO   
22:59:58.641 INFO   
23:00:00.494 INFO   
23:00:12.965 INFO   
16:18:39.229 INFO  {"lugareAdicionados":0,"reviewsAdicionados":0,"_id":"5c2b7d6a4e2a3b11c3c81f5b","email":"caiioo@hiboost.com.br","password":"$2b$10$/t691I7ti1/VHSUHR4Ld3.N7sm9JJ4omaztTfnHPeRckVXQbyqsV2","username":"Mia Fernandes","favorites":[{"_id":"5c2f561ef2da44539e58a056","placeId":"5c27a7439df20ca5ce91907c","data":"2019-01-04T12:48:30.485Z"},{"_id":"5c30be00f2da44539e58a05b","placeId":"5c2c37161492fbe30a7dd82d","data":"2019-01-05T14:24:00.777Z"}],"created":"2019-01-01T14:47:06.784Z","__v":0,"refreshToken":"jAxSmp20zg9WRAJfmmhFUHz0KCGNz1Z6uWknMmHJdLMALgsF9BQLQWxpMSAPlLci8xAbYdUxmiBwBdpJddxv2Vzm7ZwqO3ig9f3mcdgeFbwxnyYvURUmFr6Bq8JqZ9kHVS0KylvEABn7Hfvw6G720LLUgEluQnIL0RSlSInbTT56n13xj4x18a3hoVrdR8mk32Dkwn44VfrlbymDzdv7J3JP7SWUASUEFwIdijIE7VNRJRjdyeSJ8NDQgu5YeGvg"} 
16:31:34.886 INFO  {"lugareAdicionados":10,"reviewsAdicionados":4,"_id":"5c052b902b198679aadcfa91","email":"caio@hiboost.com.br","password":"$2b$10$Ekouug1DVEu43fzUd/./GuoF9k3XcRxPKckloJ8xQA.MITgDjvEhq","username":"Caio Fernandes","favorites":[{"_id":"5c28aa07faac9eba4e3cb7d0","placeId":"5c27a7439df20ca5ce91907c","data":"2018-12-30T11:20:39.342Z"},{"_id":"5c30bdfef2da44539e58a05a","placeId":"5c2c37161492fbe30a7dd82d","data":"2019-01-05T14:23:58.925Z"}],"created":"2018-12-03T13:11:44.716Z","__v":0,"refreshToken":"pLfrDcsFkBmzRYvjLFmiz9cWgQO31wwI7KCllhTTcq5Xp0NwQ6UrRUk3VLKH52ZhP6J3KMBrhkP3O6I6Rhy2q9OpMH5xdBdwpbVEVEiskmmPCtbzvKo5J0Z6m3pEuKVXfNRFYX1Y99vOUzg26ImYlJnnIF3LEcKkjC353H1GRCCufqNJm28wOCXjJaqaJ2W8EmAFoBYYSCWsvPEffWd9Y3PDGTSuJEMcyX5L0fXVXvde9tFHLZygjp0iiXp3wuql"} 
19:26:14.291 INFO  {"lugareAdicionados":1,"reviewsAdicionados":0,"_id":"5c2b7d6a4e2a3b11c3c81f5b","email":"caiioo@hiboost.com.br","password":"$2b$10$/t691I7ti1/VHSUHR4Ld3.N7sm9JJ4omaztTfnHPeRckVXQbyqsV2","username":"Mia Fernandes","favorites":[{"_id":"5c2f561ef2da44539e58a056","placeId":"5c27a7439df20ca5ce91907c","data":"2019-01-04T12:48:30.485Z"},{"_id":"5c30be00f2da44539e58a05b","placeId":"5c2c37161492fbe30a7dd82d","data":"2019-01-05T14:24:00.777Z"}],"created":"2019-01-01T14:47:06.784Z","__v":0,"refreshToken":"9eBFLIxU9R2pNKlFEDuk0QMEyvno3R4Cz7ZTI4eA6ZtctjVx2vLfj8iY9cD7OOG2I2laCBtu5JONvYprwKhvnB8Y49rddct8pbxEcyTmDAVqKYk3Rr6ZO0ctr8qm8viOiu2wT2UISmOgbgSwUwK1ibkq6dhrBLOzfrPKVCIwy1blie2SOCPIN5NTA73MAZvNFIjN33vdEfkhZzXv1aX8XsrZGdwkhDblvsDXaAZKguR84EbjuojMp8NAOQJDMwwX"} 
19:31:09.850 INFO  {"lugareAdicionados":17,"reviewsAdicionados":9,"_id":"5c052b902b198679aadcfa81","email":"caioo@hiboost.com.br","password":"$2b$10$Ekouug1DVEu43fzUd/./GuoF9k3XcRxPKckloJ8xQA.MITgDjvEhq","username":"Team Move","favorites":[{"_id":"5c279ad69df20ca5ce919074","placeId":"5c26dfab9df20ca5ce919071","data":"2018-12-29T16:03:34.488Z"},{"_id":"5c2ac3764e2a3b11c3c81f58","placeId":"5c26dd8e9df20ca5ce91906a","data":"2019-01-01T01:33:42.064Z"},{"_id":"5c2b9c1a9c01e64fd70ad0ce","placeId":"5c279d469df20ca5ce919075","data":"2019-01-01T16:58:01.996Z"}],"created":"2018-12-03T13:11:44.716Z","__v":0,"refreshToken":"qBiwfhD5ZGw8T3tAZMZV0ze3RdGzTKEaixZ2oYVOvSZHoCTZjvplSinLKefOPC43ymjnVLvXKYqWX2mdQ29p5IOGjBKf1kfxG8IKnaIEYr35wlJVvXQbJyr26hTMY8t5UnAUONAZk72Q9KNEXLY75jx4rxlZghyX6Zf4VQ6WKnvtby8YFvuRoPDXmQgvC1HPmAykJKVva6h9aK3t8YenYyN7185B1Ze2SobuxW3clolhZEMXmmgnAa8zc8ASHnH7"} 
23:09:08.375 INFO  {"lugareAdicionados":17,"reviewsAdicionados":9,"_id":"5c052b902b198679aadcfa81","email":"caioo@hiboost.com.br","password":"$2b$10$Ekouug1DVEu43fzUd/./GuoF9k3XcRxPKckloJ8xQA.MITgDjvEhq","username":"Team Move","favorites":[{"_id":"5c279ad69df20ca5ce919074","placeId":"5c26dfab9df20ca5ce919071","data":"2018-12-29T16:03:34.488Z"},{"_id":"5c2ac3764e2a3b11c3c81f58","placeId":"5c26dd8e9df20ca5ce91906a","data":"2019-01-01T01:33:42.064Z"},{"_id":"5c2b9c1a9c01e64fd70ad0ce","placeId":"5c279d469df20ca5ce919075","data":"2019-01-01T16:58:01.996Z"},{"_id":"5c328f44d19208312f773c15","placeId":"5c2c3aa31492fbe30a7dd832","data":"2019-01-06T23:29:08.587Z"},{"_id":"5c3293c5d19208312f773c1a","placeId":"5c26dc3e9df20ca5ce919065","data":"2019-01-06T23:48:21.645Z"}],"created":"2018-12-03T13:11:44.716Z","__v":0,"refreshToken":"YHRdayK6oTiF9xs28n4Pqv92dhp7gr19NKX9JZEH2q1mmxgvwqWUiN6dZbLXkqSbzEwoJgHiMFSmMmDeCCfN8yKJDkvghiUBRWIpK9MGUskUZ8qs0D56zVaSwIBKl7jUDQWY0cm4d8fHQPkwnSrmFG6zyxAaYy64DCFUk6ZrSjhEJ2GMZYxGqEKUNf9rEWkhsSNQdCbawEJk2vEZBUIi53qyZ9oeRgHlato104wnPFEbcNeWxLQuF1WhhwSQXqn8"} 
15:50:48.052 INFO  {"lugareAdicionados":16,"reviewsAdicionados":4,"_id":"5c052b902b198679aadcfa91","email":"caio@hiboost.com.br","password":"$2b$10$Ekouug1DVEu43fzUd/./GuoF9k3XcRxPKckloJ8xQA.MITgDjvEhq","username":"Caio Fernandes","favorites":[{"_id":"5c28aa07faac9eba4e3cb7d0","placeId":"5c27a7439df20ca5ce91907c","data":"2018-12-30T11:20:39.342Z"},{"_id":"5c30bdfef2da44539e58a05a","placeId":"5c2c37161492fbe30a7dd82d","data":"2019-01-05T14:23:58.925Z"}],"created":"2018-12-03T13:11:44.716Z","__v":0,"refreshToken":"9N9Erea1MbSJ22rl4WkL4468j9aU58dX73v4vlnjJNSi6MFwO4vONmvIgTI6p5vmOqR5mA2JC5Y1NYG1eB7AScB0WS25a3OAcazO0iDgikKs5UAVPzc9PF0Pt0AdF6ltOJiEGBBtcYjfItIKiuf1uNYN9nvGK9ZkuGMSoMrkC8jBuQHdeGmly2DkGoIcIkWMbgPTPQUw1vR1zuiV6JL5qicWai7W7kkPHWovet0m9etJIOoUbph2ZchynSDLCw7N"} 
20:01:43.620 INFO  {"lugareAdicionados":17,"reviewsAdicionados":9,"_id":"5c052b902b198679aadcfa81","email":"caioo@hiboost.com.br","password":"$2b$10$Ekouug1DVEu43fzUd/./GuoF9k3XcRxPKckloJ8xQA.MITgDjvEhq","username":"Team Move","favorites":[{"_id":"5c279ad69df20ca5ce919074","placeId":"5c26dfab9df20ca5ce919071","data":"2018-12-29T16:03:34.488Z"},{"_id":"5c2ac3764e2a3b11c3c81f58","placeId":"5c26dd8e9df20ca5ce91906a","data":"2019-01-01T01:33:42.064Z"},{"_id":"5c2b9c1a9c01e64fd70ad0ce","placeId":"5c279d469df20ca5ce919075","data":"2019-01-01T16:58:01.996Z"},{"_id":"5c328f44d19208312f773c15","placeId":"5c2c3aa31492fbe30a7dd832","data":"2019-01-06T23:29:08.587Z"},{"_id":"5c3293c5d19208312f773c1a","placeId":"5c26dc3e9df20ca5ce919065","data":"2019-01-06T23:48:21.645Z"}],"created":"2018-12-03T13:11:44.716Z","__v":0,"refreshToken":"eArfLake6HYde72ptnLi700aUsFeIt4um8Ef0K9fbywqthGAZCw9uRLgUKD9fxlmsD7qDvS9JRSnq59tJyV2kdPgc6E1XKofizJ3gzjdfN522M5thwcLUgLC7sTOwnJFGvCL7Y1dVJZ8MrFEBV5NvoOSsP2PERLohBf0GCuj5JvNOWfe9qhAV8OtypJMLiETpOQAvZsVnzWxxY81sdyRBUCfaWborX0X8U2ZKsmfMp6sWFf0TR63hE51RlzXsw0P"} 
21:29:22.147 INFO  {"photo":{"url":"wip/uploads/profile/profileImg-1547159281727.jpg","thumbUrl":"wip/uploads/profile/profileImg-1547159281727-thumb.jpg","tinyUrl":"wip/uploads/profile/profileImg-1547159281727-tiny.jpg"},"lugareAdicionados":17,"reviewsAdicionados":9,"_id":"5c052b902b198679aadcfa81","email":"caioo@hiboost.com.br","password":"$2b$10$Ekouug1DVEu43fzUd/./GuoF9k3XcRxPKckloJ8xQA.MITgDjvEhq","username":"Team Move","favorites":[{"_id":"5c279ad69df20ca5ce919074","placeId":"5c26dfab9df20ca5ce919071","data":"2018-12-29T16:03:34.488Z"},{"_id":"5c2ac3764e2a3b11c3c81f58","placeId":"5c26dd8e9df20ca5ce91906a","data":"2019-01-01T01:33:42.064Z"},{"_id":"5c2b9c1a9c01e64fd70ad0ce","placeId":"5c279d469df20ca5ce919075","data":"2019-01-01T16:58:01.996Z"},{"_id":"5c328f44d19208312f773c15","placeId":"5c2c3aa31492fbe30a7dd832","data":"2019-01-06T23:29:08.587Z"},{"_id":"5c3293c5d19208312f773c1a","placeId":"5c26dc3e9df20ca5ce919065","data":"2019-01-06T23:48:21.645Z"}],"created":"2018-12-03T13:11:44.716Z","__v":0,"refreshToken":"62zfwxRsnj6SU6n8p80k9ZG7E3O0z41OrW9vgobc7v3fDVeV0FdpkzAaAC6NYsJ7kYJzFPLeisBWXhvEGavQgxszKqeXXKMC6gsRKkjhcOSYgaGGa8WHJNs30c3x2xmrIARb7SO4estH9ZQx69Ib5z13DBKWF6y0YLDylijBIkqRwbm2l7mBDsOt2o9AJDbz0CFvINa4bozNa8jsUlTu5jQ1BuDIyfb1mZ2uYWMVgYpTRUDWYLcN2sIIeyxaMkEf"} 
21:30:22.015 INFO  {"photo":{"url":"wip/uploads/profile/profileImg-1547159281727.jpg","thumbUrl":"wip/uploads/profile/profileImg-1547159281727-thumb.jpg","tinyUrl":"wip/uploads/profile/profileImg-1547159281727-tiny.jpg"},"lugareAdicionados":17,"reviewsAdicionados":9,"_id":"5c052b902b198679aadcfa81","email":"caioo@hiboost.com.br","password":"$2b$10$Ekouug1DVEu43fzUd/./GuoF9k3XcRxPKckloJ8xQA.MITgDjvEhq","username":"Team Move","favorites":[{"_id":"5c279ad69df20ca5ce919074","placeId":"5c26dfab9df20ca5ce919071","data":"2018-12-29T16:03:34.488Z"},{"_id":"5c2ac3764e2a3b11c3c81f58","placeId":"5c26dd8e9df20ca5ce91906a","data":"2019-01-01T01:33:42.064Z"},{"_id":"5c2b9c1a9c01e64fd70ad0ce","placeId":"5c279d469df20ca5ce919075","data":"2019-01-01T16:58:01.996Z"},{"_id":"5c328f44d19208312f773c15","placeId":"5c2c3aa31492fbe30a7dd832","data":"2019-01-06T23:29:08.587Z"},{"_id":"5c3293c5d19208312f773c1a","placeId":"5c26dc3e9df20ca5ce919065","data":"2019-01-06T23:48:21.645Z"}],"created":"2018-12-03T13:11:44.716Z","__v":0,"refreshToken":"rYOb4nCd0j5YNwbkZYmoLExZ4guhU7W6PihmOvKFaht8Q9J3h49FK6DM1cux6I8Vh6Lk6LOgPVzT6E6g782B7oiOWiy8AcAxq5JyenVesv5ZWs49OW1x1PUFcx6BKDuMVRdQxNseh5cJ5etoQSgr7bh1wbAsg9eTLGZr16mAF2Imm6xQ0zeqvA7cqchlygDr7yfIEzIRatW39WlK8JBgHsFXPyNnRN7LrvFRxiEyGK1MEQp8Y9wuMDahENZINndV"} 
21:33:46.931 INFO  {"photo":{"url":"wip/uploads/profile/profileImg-1547159281727.jpg","thumbUrl":"wip/uploads/profile/profileImg-1547159281727-thumb.jpg","tinyUrl":"wip/uploads/profile/profileImg-1547159281727-tiny.jpg"},"lugareAdicionados":17,"reviewsAdicionados":9,"_id":"5c052b902b198679aadcfa81","email":"caioo@hiboost.com.br","password":"$2b$10$Ekouug1DVEu43fzUd/./GuoF9k3XcRxPKckloJ8xQA.MITgDjvEhq","username":"Team Move","favorites":[{"_id":"5c279ad69df20ca5ce919074","placeId":"5c26dfab9df20ca5ce919071","data":"2018-12-29T16:03:34.488Z"},{"_id":"5c2ac3764e2a3b11c3c81f58","placeId":"5c26dd8e9df20ca5ce91906a","data":"2019-01-01T01:33:42.064Z"},{"_id":"5c2b9c1a9c01e64fd70ad0ce","placeId":"5c279d469df20ca5ce919075","data":"2019-01-01T16:58:01.996Z"},{"_id":"5c328f44d19208312f773c15","placeId":"5c2c3aa31492fbe30a7dd832","data":"2019-01-06T23:29:08.587Z"},{"_id":"5c3293c5d19208312f773c1a","placeId":"5c26dc3e9df20ca5ce919065","data":"2019-01-06T23:48:21.645Z"}],"created":"2018-12-03T13:11:44.716Z","__v":0,"refreshToken":"7dWijvKPotTrOEWTnAJbYYMQJ6otcRGd2Yol99Xb0bwXUqpofoWmCV1by3nYKmTIqTMqFoLswnTbFrRAGuNcuMzkwv97C3dHZTXQqOzese2I9hZDqaXExPljHv0Hg7NxJ6dWojfulq2RNXUucvDmDOEikAo8oy8bkSA3IhGd0cIVqtMueI3OLzj38IGg7UwWASg1ro3dlQSYAUKt4qy4ducRTGj257oCqhrEkJG7EhItfRcgixM6L3R1jIdljFkB"} 
21:41:14.481 INFO   
21:41:49.058 INFO  {"lugareAdicionados":16,"reviewsAdicionados":4,"_id":"5c052b902b198679aadcfa91","email":"caio@hiboost.com.br","password":"$2b$10$Ekouug1DVEu43fzUd/./GuoF9k3XcRxPKckloJ8xQA.MITgDjvEhq","username":"Caio Fernandes","favorites":[{"_id":"5c28aa07faac9eba4e3cb7d0","placeId":"5c27a7439df20ca5ce91907c","data":"2018-12-30T11:20:39.342Z"},{"_id":"5c30bdfef2da44539e58a05a","placeId":"5c2c37161492fbe30a7dd82d","data":"2019-01-05T14:23:58.925Z"}],"created":"2018-12-03T13:11:44.716Z","__v":0,"refreshToken":"02K3bhb6yPNHB510XW39lyWNL2hwCpBEg4ChVAlSGdjrUEDEJ1wNPtzbFaIBdwiYPXeMeBN6EC8y1RrBEATfhu786aPz2zzn7KUEODuk35YLCmonif8JncY3IF3nAbLWzaT5n5R4jzWCqROsymYpVNozW2CspMEFzFztS2YevOr0gwcwLOqo6b5Q0OVd1cJNyNb6VC8jB96wu4i66NEzM4Z4NbEK053mBYU772MO5fAo9qnnf5c5UFMmRj0jQNyB"} 
09:20:53.676 INFO  {"photo":{"url":"wip/uploads/profile/profileImg-1547164806172.jpg","thumbUrl":"wip/uploads/profile/profileImg-1547164806172-thumb.jpg","tinyUrl":"wip/uploads/profile/profileImg-1547164806172-tiny.jpg"},"lugareAdicionados":17,"reviewsAdicionados":4,"_id":"5c052b902b198679aadcfa91","email":"caio@hiboost.com.br","password":"$2b$10$Ekouug1DVEu43fzUd/./GuoF9k3XcRxPKckloJ8xQA.MITgDjvEhq","username":"Caio Fernandes","favorites":[{"_id":"5c28aa07faac9eba4e3cb7d0","placeId":"5c27a7439df20ca5ce91907c","data":"2018-12-30T11:20:39.342Z"},{"_id":"5c30bdfef2da44539e58a05a","placeId":"5c2c37161492fbe30a7dd82d","data":"2019-01-05T14:23:58.925Z"}],"created":"2018-12-03T13:11:44.716Z","__v":0,"refreshToken":"m50m1Mkn8NBkmin2xI1ed39nvGOruIdhY5nDLExL7woD9PnGqm45uTjuhw5Ibe6ZC9ntQp2NpPSdHaYgAkjqk0m9GzvSfWSKtjTLilkCKDUOzBZmRGopnynV3ZAMcqcgb6rm9t6kW7refCp9L6uiZTeQ0LgjUNdUMhYJhQGsPKdFIVPkT4PitVtyQJ6o1Gc9dkdGq1J236RBB3uajKB6ohrCj58XSD8eLhP3elCucl2yJRmqhJ30uiyIlyZlnlO8"} 
10:16:01.449 INFO  {"photo":{"url":"wip/uploads/profile/profileImg-1547206572688.jpg","thumbUrl":"wip/uploads/profile/profileImg-1547206572688-thumb.jpg","tinyUrl":"wip/uploads/profile/profileImg-1547206572688-tiny.jpg"},"lugareAdicionados":17,"reviewsAdicionados":4,"_id":"5c052b902b198679aadcfa91","email":"caio@hiboost.com.br","password":"$2b$10$Ekouug1DVEu43fzUd/./GuoF9k3XcRxPKckloJ8xQA.MITgDjvEhq","username":"Caio Fernandes","favorites":[{"_id":"5c28aa07faac9eba4e3cb7d0","placeId":"5c27a7439df20ca5ce91907c","data":"2018-12-30T11:20:39.342Z"},{"_id":"5c30bdfef2da44539e58a05a","placeId":"5c2c37161492fbe30a7dd82d","data":"2019-01-05T14:23:58.925Z"}],"created":"2018-12-03T13:11:44.716Z","__v":0,"refreshToken":"k6qwtWl8Uu4Egi4iMcbf5AyAhOUzpWqwGmU84Nr5ZJE3bxzHGOAbN5peNQICWqsti3U7PnYLS0tMhX7dMNuAyoz7SlZXOkCckbSnDvIymrbQp62sryBp1Cx6idbvHLoKkfcfQQtsm1CwswY20rSGLXahOOAaaioVe002qyIxFa0L3CsS80H2w2xG7dLFK2EHdADPeAzuZKiWF8QH2RVop1GtvdaZxjqIINTqkjySWOqcQQDPKeuSdkK1jypGAFCS"} 
12:02:27.536 INFO  {"lugareAdicionados":0,"reviewsAdicionados":1,"_id":"5c052b902b198679aadcfa80","email":"caiooo@hiboost.com.br","password":"$2b$10$Ekouug1DVEu43fzUd/./GuoF9k3XcRxPKckloJ8xQA.MITgDjvEhq","username":"Usuario com nome gigante","favorites":[{"_id":"5c2a5429f93ea1218a90fe1a","placeId":"5c27a6579df20ca5ce919078","data":"2018-12-31T17:38:49.084Z"}],"created":"2018-12-03T13:11:44.716Z","__v":0,"refreshToken":"6KfxDUui7rS821yQYRMsAMoXSQJPzqanJpyKlWcmLVSawQ8C1gSxK7JjTKBVAvoKLPP0zCbD7WopXPIyzkV300cWOQSsxMBVkVhba98KijWsTydG3pK6vxLz4KRvFAqdLsuRtOZZVQPjas4GReVVLQzgP6372WRCzvWWGaWlqsKEO2qs4ZJp0PqVnhpgshKsuvBsGvSA13Dno5WjEVzHyfVrOJT605oNEIdqBjbBqN2XDwAqe49ulUT4Sd2m6gEd"} 
12:12:38.481 INFO  {"photo":{"url":"wip/uploads/profile/profileImg-1547159281727.jpg","thumbUrl":"wip/uploads/profile/profileImg-1547159281727-thumb.jpg","tinyUrl":"wip/uploads/profile/profileImg-1547159281727-tiny.jpg"},"lugareAdicionados":17,"reviewsAdicionados":9,"_id":"5c052b902b198679aadcfa81","email":"caioo@hiboost.com.br","password":"$2b$10$Ekouug1DVEu43fzUd/./GuoF9k3XcRxPKckloJ8xQA.MITgDjvEhq","username":"Team Move","favorites":[{"_id":"5c279ad69df20ca5ce919074","placeId":"5c26dfab9df20ca5ce919071","data":"2018-12-29T16:03:34.488Z"},{"_id":"5c2ac3764e2a3b11c3c81f58","placeId":"5c26dd8e9df20ca5ce91906a","data":"2019-01-01T01:33:42.064Z"},{"_id":"5c2b9c1a9c01e64fd70ad0ce","placeId":"5c279d469df20ca5ce919075","data":"2019-01-01T16:58:01.996Z"},{"_id":"5c328f44d19208312f773c15","placeId":"5c2c3aa31492fbe30a7dd832","data":"2019-01-06T23:29:08.587Z"},{"_id":"5c3293c5d19208312f773c1a","placeId":"5c26dc3e9df20ca5ce919065","data":"2019-01-06T23:48:21.645Z"}],"created":"2018-12-03T13:11:44.716Z","__v":0,"refreshToken":"yNzvGiWrFaqzYVJtVESmgikWLMiG3aRCSVL8Ei8hQRzPhEVWTid0a6K7fBb4vaSSYsocXFormdnw57eJ6mWJmhXRU2qT6LCYQWlbp7zlAfct0d4BfqhFP3JxOFVxjVwBeqraWdx6gXE1MQPekJ57t0ys2eBh62XfQjW1gwtuPE6wvRJq53DoK3eu5YPvtfBunMduJ01ANuUJPcBHPumRLv71Vb32cae1AlXLkVkjPKk0ZMKLnNkuHe9qrOw3qsAs"} 
12:12:48.198 INFO  {"lugareAdicionados":0,"reviewsAdicionados":1,"_id":"5c052b902b198679aadcfa80","email":"caiooo@hiboost.com.br","password":"$2b$10$Ekouug1DVEu43fzUd/./GuoF9k3XcRxPKckloJ8xQA.MITgDjvEhq","username":"Usuario com nome gigante","favorites":[{"_id":"5c2a5429f93ea1218a90fe1a","placeId":"5c27a6579df20ca5ce919078","data":"2018-12-31T17:38:49.084Z"}],"created":"2018-12-03T13:11:44.716Z","__v":0,"refreshToken":"byrS1L3h3y8FgoUcyxBbaB5HIIVFPJKdodc4ub1SB5w4ihhOEnbm6gGAveOpH3Udwm3lO9W4og7vyhsfPirLEIsID3eZMmjqoVJaSakL8QDq55WXtdqAPrrByKVg4GUof7jc8rFtmxY4NXiNdByEMgo0jWX95BQb4ujds2kaSVg71ceYI4Kzu2chIZoczsCYWoXKwrZgUntG6N8Hg6ZxWgttT8Fz7NkfdcAmo2n7CDLRHM3LS6N4YQpJfiSn8S1P"} 
12:39:45.955 INFO  {"photo":{"url":"wip/uploads/profile/profileImg-1547159281727.jpg","thumbUrl":"wip/uploads/profile/profileImg-1547159281727-thumb.jpg","tinyUrl":"wip/uploads/profile/profileImg-1547159281727-tiny.jpg"},"lugareAdicionados":0,"reviewsAdicionados":0,"_id":"5c052b902b198679aadcfa81","email":"caioo@hiboost.com.br","password":"$2b$10$Ekouug1DVEu43fzUd/./GuoF9k3XcRxPKckloJ8xQA.MITgDjvEhq","username":"Team Move","favorites":[{"_id":"5c279ad69df20ca5ce919074","placeId":"5c26dfab9df20ca5ce919071","data":"2018-12-29T16:03:34.488Z"},{"_id":"5c2ac3764e2a3b11c3c81f58","placeId":"5c26dd8e9df20ca5ce91906a","data":"2019-01-01T01:33:42.064Z"},{"_id":"5c2b9c1a9c01e64fd70ad0ce","placeId":"5c279d469df20ca5ce919075","data":"2019-01-01T16:58:01.996Z"},{"_id":"5c328f44d19208312f773c15","placeId":"5c2c3aa31492fbe30a7dd832","data":"2019-01-06T23:29:08.587Z"},{"_id":"5c3293c5d19208312f773c1a","placeId":"5c26dc3e9df20ca5ce919065","data":"2019-01-06T23:48:21.645Z"}],"created":"2018-12-03T13:11:44.716Z","__v":0,"refreshToken":"dX3JqbTtk2A3IKzjugfVLcxYJ58qecTkyclNrwuDG3WRXGc65woWmediRuBx3sQ1H81Ce1IvQdqsHm97e4B7wLYeYRhVqgFTeyADtcbwzZs29GSEWQ8A1xgTDfurRfDMTzMvR5oHkEFUwnFhFqtuRYlgXyjVQ6ssudq1gHnImVN7Hdu29NJtzIxmk41FELVwqwDLvOSUN4SWX09WWbxxDOwCSwhI2O0dbOdJaNBASb2YLkP3AsHaTWfQKewhWs9K"} 
12:59:24.913 INFO  {"photo":{"url":"wip/uploads/profile/profileImg-1547217655973.jpg","thumbUrl":"wip/uploads/profile/profileImg-1547217655973-thumb.jpg","tinyUrl":"wip/uploads/profile/profileImg-1547217655973-tiny.jpg"},"lugareAdicionados":0,"reviewsAdicionados":0,"_id":"5c052b902b198679aadcfa81","email":"caioo@hiboost.com.br","password":"$2b$10$Ekouug1DVEu43fzUd/./GuoF9k3XcRxPKckloJ8xQA.MITgDjvEhq","username":"Team Move","favorites":[{"_id":"5c279ad69df20ca5ce919074","placeId":"5c26dfab9df20ca5ce919071","data":"2018-12-29T16:03:34.488Z"},{"_id":"5c2ac3764e2a3b11c3c81f58","placeId":"5c26dd8e9df20ca5ce91906a","data":"2019-01-01T01:33:42.064Z"},{"_id":"5c2b9c1a9c01e64fd70ad0ce","placeId":"5c279d469df20ca5ce919075","data":"2019-01-01T16:58:01.996Z"},{"_id":"5c328f44d19208312f773c15","placeId":"5c2c3aa31492fbe30a7dd832","data":"2019-01-06T23:29:08.587Z"},{"_id":"5c3293c5d19208312f773c1a","placeId":"5c26dc3e9df20ca5ce919065","data":"2019-01-06T23:48:21.645Z"}],"created":"2018-12-03T13:11:44.716Z","__v":0,"refreshToken":"iSuQOp8K4Cfe7I17GP5ekxQtLNZD5Khc7nmDVN1w6G8J8Jn1JHLyxUNP8Xajkr4NvpQMt8CecYNdQFtP5wXmRE1l4mqU3F6NbYptLdHPcUxyWs7MxawnWIn3r9UPBcosUhRaAKsgoPpXlmb6pWNfMXpArXgEHDLDVLeeca5TuBm7bURVyD7XKZ07TGlsRTvIh3I2YhCmJ1dLE4qs0nOphNQ3mnz9ilIHDakYvta0FOsXrAlGsBziGQLy9yCatlUO"} 
15:15:12.480 INFO  {"photo":{"url":"wip/uploads/profile/profileImg-1547219656439.jpg","thumbUrl":"wip/uploads/profile/profileImg-1547219656439-thumb.jpg","tinyUrl":"wip/uploads/profile/profileImg-1547219656439-tiny.jpg"},"lugareAdicionados":3,"reviewsAdicionados":2,"_id":"5c052b902b198679aadcfa81","email":"caioo@hiboost.com.br","password":"$2b$10$Ekouug1DVEu43fzUd/./GuoF9k3XcRxPKckloJ8xQA.MITgDjvEhq","username":"Team Move","favorites":[{"_id":"5c279ad69df20ca5ce919074","placeId":"5c26dfab9df20ca5ce919071","data":"2018-12-29T16:03:34.488Z"},{"_id":"5c2ac3764e2a3b11c3c81f58","placeId":"5c26dd8e9df20ca5ce91906a","data":"2019-01-01T01:33:42.064Z"},{"_id":"5c2b9c1a9c01e64fd70ad0ce","placeId":"5c279d469df20ca5ce919075","data":"2019-01-01T16:58:01.996Z"},{"_id":"5c328f44d19208312f773c15","placeId":"5c2c3aa31492fbe30a7dd832","data":"2019-01-06T23:29:08.587Z"},{"_id":"5c3293c5d19208312f773c1a","placeId":"5c26dc3e9df20ca5ce919065","data":"2019-01-06T23:48:21.645Z"}],"created":"2018-12-03T13:11:44.716Z","__v":0,"refreshToken":"5smMGtmLRUsYjFxbJ51chFHFaLTS4ZkdJTGJmGhIvLMdS2V3YEdCS4pSUDJhFLNpObSm8YSrKFaYfWZWdsHLDaKN6BZC753i5g3LIgv6yJcreBW2JE81YuMS4OfOMxQZeMzLJMyVyBs7AQf0JNoH8R4QEFkMrkd9z7a3lxSmWTBjfWedoSIngFARCwVVwZrz2kXWEXstim5Cgd0qBdErg66VFNjUMZHvoNHP77V4QzpVCiYvzyEKk7R1jHSQR7ZV"} 
15:17:40.173 INFO  {"lugareAdicionados":0,"reviewsAdicionados":0,"_id":"5c052b902b198679aadcfa80","email":"caiooo@hiboost.com.br","password":"$2b$10$Ekouug1DVEu43fzUd/./GuoF9k3XcRxPKckloJ8xQA.MITgDjvEhq","username":"Usuario com nome gigante","favorites":[{"_id":"5c2a5429f93ea1218a90fe1a","placeId":"5c27a6579df20ca5ce919078","data":"2018-12-31T17:38:49.084Z"}],"created":"2018-12-03T13:11:44.716Z","__v":0,"refreshToken":"QVkVpdvNRSyKDENDPdBVeLyTTsAi3QLkMdZ8yZLZ2dVz7HSNXrmtPOQlfWJcJeC05foZYvL3hwBYrI2svLmes1oE1V3xKJPJuyKAomTb2UoJ984cekR1MH5JItyuksZ14EZYlyv9BLlPo4uZvVeWtEC0048bZZ1WKAijX98qCkqkQyHCiRFWa5FRGWCvtJREFmqM8c0gng8qjD3ruXDaQI60kuwuoX6TxnOisBdADT5OtRlOIh6lHy48Pf5Y6Gh1"} 
15:20:28.045 INFO  {"lugareAdicionados":0,"reviewsAdicionados":1,"_id":"5c052b902b198679aadcfa80","email":"caiooo@hiboost.com.br","password":"$2b$10$Ekouug1DVEu43fzUd/./GuoF9k3XcRxPKckloJ8xQA.MITgDjvEhq","username":"Usuario com nome gigante","favorites":[{"_id":"5c2a5429f93ea1218a90fe1a","placeId":"5c27a6579df20ca5ce919078","data":"2018-12-31T17:38:49.084Z"}],"created":"2018-12-03T13:11:44.716Z","__v":0,"refreshToken":"aXIDnkiTWBoqwFGiKD9MbFC861g838ioin5q1ILYP5Ld1vMSbb45tCHWJ7uFvtPViABGQnFnZ6fmrQoQYLYLu2JRKMEjtVeyn9oKI4hVxznKEVegIknSbja6KUOzJaVCEWZrlL5NbDR2qDbcyYGcO2J5HRX1wLdPXpYwAsmfn59gPByskofZswOcduKxkbASzdAJcqMY3RI1KPxYXAoc8sr6VY33ukUINRcQZAidE85VF0UidY4I9Y96ON0iXy6F"} 
15:20:32.755 INFO  {"lugareAdicionados":0,"reviewsAdicionados":1,"_id":"5c052b902b198679aadcfa80","email":"caiooo@hiboost.com.br","password":"$2b$10$Ekouug1DVEu43fzUd/./GuoF9k3XcRxPKckloJ8xQA.MITgDjvEhq","username":"Usuario com nome gigante","favorites":[{"_id":"5c2a5429f93ea1218a90fe1a","placeId":"5c27a6579df20ca5ce919078","data":"2018-12-31T17:38:49.084Z"}],"created":"2018-12-03T13:11:44.716Z","__v":0,"refreshToken":"aXIDnkiTWBoqwFGiKD9MbFC861g838ioin5q1ILYP5Ld1vMSbb45tCHWJ7uFvtPViABGQnFnZ6fmrQoQYLYLu2JRKMEjtVeyn9oKI4hVxznKEVegIknSbja6KUOzJaVCEWZrlL5NbDR2qDbcyYGcO2J5HRX1wLdPXpYwAsmfn59gPByskofZswOcduKxkbASzdAJcqMY3RI1KPxYXAoc8sr6VY33ukUINRcQZAidE85VF0UidY4I9Y96ON0iXy6F"} 
17:42:12.975 INFO   
17:43:32.242 INFO  {"lugareAdicionados":0,"reviewsAdicionados":0,"_id":"5c38f1e33223b08b4ea49650","email":"caio@hiboost.com.br","password":"$2b$10$S/TRtkTIEyzW7aM7/o.3h.H4W7/Nf/0fNqr4V3PYWSaq5YBejC4kW","username":"Caio Fernandes","favorites":[],"created":"2019-01-11T19:43:31.533Z","__v":0} 
17:43:43.505 INFO  {"lugareAdicionados":0,"reviewsAdicionados":0,"_id":"5c38f1e33223b08b4ea49650","email":"caio@hiboost.com.br","password":"$2b$10$S/TRtkTIEyzW7aM7/o.3h.H4W7/Nf/0fNqr4V3PYWSaq5YBejC4kW","username":"Caio Fernandes","favorites":[],"created":"2019-01-11T19:43:31.533Z","__v":0,"refreshToken":"L62Ch9K56I8adLCXDZiL1aGrEosyOZeVCQLXZ6Lb9FO1yWKO9Qh5DXZjrJFGkXnmEhGCJschoD9swfoHHJJBOMyTnRTTUxbgfkDddfjEcaKuAviAyqEa7ZiUaG9tiUWPp64wqCMLnvEGDv4X8yLBZBawO4aKCY0QSNi3sdtjDGHb66adX8OYAr3AvjvLPbLnbcF05vrkWNgTpd16zkix68oI9dT47YUusiG6vP3Wu3vkbFyolRLjsP7BxoLv6nnM"} 
18:22:22.228 INFO   
18:22:25.526 INFO   
18:23:43.845 INFO   
18:23:46.845 INFO   
19:49:33.235 INFO  {"photo":{"url":"wip/uploads/profile/profileImg-1547240488119.jpg","thumbUrl":"wip/uploads/profile/profileImg-1547240488119-thumb.jpg","tinyUrl":"wip/uploads/profile/profileImg-1547240488119-tiny.jpg"},"lugareAdicionados":0,"reviewsAdicionados":0,"_id":"5c38f1e33223b08b4ea49650","email":"caio@hiboost.com.br","password":"$2b$10$S/TRtkTIEyzW7aM7/o.3h.H4W7/Nf/0fNqr4V3PYWSaq5YBejC4kW","username":"Caio Fernandes","favorites":[],"created":"2019-01-11T19:43:31.533Z","__v":0,"refreshToken":"AXXQn6lxzCyNuLuLLDiNxoszJ7WMgWu63e4kCwkW7fC6tYEe9NNIuVC6l9rfaMGJeTQEwUBknwMpDydCAoqA2G3vtEOTZv7gsRKoHPGGWpdr0K4hrKAWyoQur5ZN2TVODyEIYRd791DGYvvWZzbmh8UYqE1ZBW6zA3MBSud9vKrwfXUuBuL129OKnUqnoRdHuTlrwwojaS9eSw6pEALu0wjlAcRS6IG9QqKGskkgKTGyKxkMQvDLvKD7cKCCi7WW"} 
20:26:35.661 INFO  {"lugareAdicionados":0,"reviewsAdicionados":0,"_id":"5c3918193223b08b4ea49666","email":"caioo@hiboost.com.br","password":"$2b$10$JlJPaFol5QEB.cDw9W0BveiOAJuQBnrIM9XqqIS8BtFKmIDqe1Se6","username":"Equipe Picos","favorites":[],"created":"2019-01-11T22:26:33.666Z","__v":0} 
19:57:43.461 INFO   
19:57:46.537 INFO   
19:57:55.137 INFO   
19:58:18.823 INFO   
19:58:20.859 INFO   
19:59:06.484 INFO   
09:36:49.225 INFO  {"lugareAdicionados":0,"reviewsAdicionados":0,"_id":"5c3b22ce94a969c67562822a","email":"mau@hiboost.com.br","password":"$2b$10$12PMiKBtYNE4.vsEZrcW4OIfMvEIv1GhienQYSrigXo.l2HWhm2L6","username":"Mauricio","favorites":[],"created":"2019-01-13T11:36:46.854Z","__v":0} 
12:54:56.034 INFO  {"lugareAdicionados":16,"reviewsAdicionados":8,"_id":"5c3918193223b08b4ea49666","email":"caioo@hiboost.com.br","password":"$2b$10$JlJPaFol5QEB.cDw9W0BveiOAJuQBnrIM9XqqIS8BtFKmIDqe1Se6","username":"Equipe Picos","favorites":[{"_id":"5c39eb97732a5a88124f6af5","placeId":"5c391bea3223b08b4ea49668","data":"2019-01-12T13:28:55.530Z"}],"created":"2019-01-11T22:26:33.666Z","__v":0,"refreshToken":"zAxhtFEVOo9Y1HglFG7nynXfCZOXSL5Bbwh7ISVH2RmyB903RzIQAu5nBapDPJc1UlNppCaLhsv3ivqqOg3xmbQxlA9QS5Jcwd2idRlth0R9wMxFQi6bpxwAyqih3094kfzJYRl7MDjiCX2kWj8CgrfznTDLkm3EcOcByEcPQdzjxa1KZa4MdDYWA3JxgYgOd7lgpAYZKOM5aGsgOQuyRl77uahq0Wy2chtJQ8p2Pu3FkEgOypHL7f8Li9P00Q7j"} 
12:55:05.303 INFO  {"photo":{"url":"wip/uploads/profile/profileImg-1547245056243.jpg","thumbUrl":"wip/uploads/profile/profileImg-1547245056243-thumb.jpg","tinyUrl":"wip/uploads/profile/profileImg-1547245056243-tiny.jpg"},"lugareAdicionados":2,"reviewsAdicionados":0,"_id":"5c38f1e33223b08b4ea49650","email":"caio@hiboost.com.br","password":"$2b$10$S/TRtkTIEyzW7aM7/o.3h.H4W7/Nf/0fNqr4V3PYWSaq5YBejC4kW","username":"Caio Fernandes","favorites":[{"_id":"5c3910223223b08b4ea49664","placeId":"5c390f723223b08b4ea49661","data":"2019-01-11T21:52:34.334Z"}],"created":"2019-01-11T19:43:31.533Z","__v":0,"refreshToken":"RNAzcoD37Wcmo5bmY5UHYmIjpJ9ro0BvbNpH9X2iihfR6dsYoEW2Wu2Q5cIqLOpmzjSUfBwjP60dz4pwckpoqNeaEIHXcL7YiVDgX7WBj0FVcP9Rn5BwM1R1MnAyVZS9GsXsHNWPZ1fA5tEz1P9WsRNEKnpDHNIjIrfEE2UbOAi4DWFYj1ubkx5A5Z9jIoILpwVgANuXUoaGbJJtGly1Zt2Tw8Yqr0WimiygOBjAtj5hncjiLQDxmRG6Z1mdYFV0"} 
13:41:23.354 INFO  {"photo":{"url":"wip/uploads/profile/profileImg-1547245056243.jpg","thumbUrl":"wip/uploads/profile/profileImg-1547245056243-thumb.jpg","tinyUrl":"wip/uploads/profile/profileImg-1547245056243-tiny.jpg"},"lugareAdicionados":2,"reviewsAdicionados":0,"_id":"5c38f1e33223b08b4ea49650","email":"caio@hiboost.com.br","password":"$2b$10$S/TRtkTIEyzW7aM7/o.3h.H4W7/Nf/0fNqr4V3PYWSaq5YBejC4kW","username":"Caio Fernandes","favorites":[{"_id":"5c3910223223b08b4ea49664","placeId":"5c390f723223b08b4ea49661","data":"2019-01-11T21:52:34.334Z"}],"created":"2019-01-11T19:43:31.533Z","__v":0,"refreshToken":"jGphXSrKt2omGiZqevQ3epKsP6UoYTEQ6WXICTmXnO61sfzZD2b9lTVsTjByUMn3L9eRSeRjygkNKCPfPEKxAjOOVConyJ4mCVVYEsycMtf6CxhkK8z0Mh4T6TT1EnvoT8vLlFFtajzoDs8tcOl5Nf4Uu2JJT3sHv6idkMLEGgBWXLSbgbb5OZtMYdee4l6VeriqLXMPbuJd4YCw5sVhciSiyCrehSQkcs04ND96Ag5Y8YGBQCoFNJuxjbudJCKC"} 
17:41:11.033 INFO   
17:41:25.917 INFO  {"lugareAdicionados":16,"reviewsAdicionados":8,"_id":"5c3918193223b08b4ea49666","email":"caioo@hiboost.com.br","password":"$2b$10$JlJPaFol5QEB.cDw9W0BveiOAJuQBnrIM9XqqIS8BtFKmIDqe1Se6","username":"Equipe Picos","favorites":[{"_id":"5c39eb97732a5a88124f6af5","placeId":"5c391bea3223b08b4ea49668","data":"2019-01-12T13:28:55.530Z"}],"created":"2019-01-11T22:26:33.666Z","__v":0,"refreshToken":"pnt9mM59ATEd8gIecedgZdr2DnS2gk0CjHcMK9cQXC3QpZQ60VS7q9sbjLNf0MURD0UMLzzaM5ZBxLSAFq6ICQPMiSPGNFxiEl4gblABm1BQaAjPUYZrHlvFATx3H2XwZNRPMcpaYhCS2nWhYNDp4VNRK9UCbW1I0VsymbaNLaAb7IbVG9dhfCwVg2hXPjFpwmu1L5KGeIHxU0dgVHm4ziw51OiqJJ94efJMCEYRhPrctiWRgnYYZhHdSkTnAUrC"} 
21:40:37.344 INFO  {"photo":{"url":"wip/uploads/profile/profileImg-1547422799307.jpg","thumbUrl":"wip/uploads/profile/profileImg-1547422799307-thumb.jpg","tinyUrl":"wip/uploads/profile/profileImg-1547422799307-tiny.jpg"},"lugareAdicionados":18,"reviewsAdicionados":9,"_id":"5c3918193223b08b4ea49666","email":"caioo@hiboost.com.br","password":"$2b$10$JlJPaFol5QEB.cDw9W0BveiOAJuQBnrIM9XqqIS8BtFKmIDqe1Se6","username":"Equipe Picos","favorites":[{"_id":"5c39eb97732a5a88124f6af5","placeId":"5c391bea3223b08b4ea49668","data":"2019-01-12T13:28:55.530Z"}],"created":"2019-01-11T22:26:33.666Z","__v":0,"refreshToken":"MkzooOkLmeXSVyIZOFzIPgRakyOds5s5PiaVUyEELZrAgUusrDvfMMsJMalfYPVOLzAn9ry1hFb3G4KZHiIYTvSE2p1n76RSToKxUMmTKFmEmw72qBWqgEm8S2dLFs3TWcBAZiKXSV6bD4MFgFUOTQ5N59HnSsGWy9cjPNUij3Xb7bpBqYUTbESupsIiOJ6YheUwCCWYSvA1UVUPA9ZffJ7wU52uMRKIAzsIQ34Hx79TYfUdzU1qfWlddYIgDzeU"} 
22:36:59.116 INFO  {"photo":{"url":"wip/uploads/profile/profileImg-1547424222355-400x400.jpg","thumbUrl":"wip/uploads/profile/profileImg-1547424222355-thumb.jpg","tinyUrl":"wip/uploads/profile/profileImg-1547424222355-tiny.jpg"},"lugareAdicionados":18,"reviewsAdicionados":9,"_id":"5c3918193223b08b4ea49666","email":"caioo@hiboost.com.br","password":"$2b$10$JlJPaFol5QEB.cDw9W0BveiOAJuQBnrIM9XqqIS8BtFKmIDqe1Se6","username":"Equipe Picos","favorites":[{"_id":"5c39eb97732a5a88124f6af5","placeId":"5c391bea3223b08b4ea49668","data":"2019-01-12T13:28:55.530Z"}],"created":"2019-01-11T22:26:33.666Z","__v":0,"refreshToken":"gxh3KXxK3BCJPNJNNXMDWy5w2aWlrzlfXuZZjmjyeDT4sf4lsyhLZj7HpWMyBuF8Gr3PfS5TmB7oGqBwyXVeFKpXHufY1cudK6a2mnWWAr3OElj8j0nha2sf71DdjEEdu72UZmFYKtOUR9yAXvl3ZyoS3iBB5GZSaLP2sXjnwMJb4fBWu9YlBWhpHjqvEfsx19pJI0CO0K3cgDU7yUkHvZ9h5rmy7FYPtTOmMVo1xC2keYt7VrJIS6RlwvR3zKaR"} 
15:42:01.661 INFO   
15:42:06.642 INFO   
15:42:09.577 INFO   
15:42:19.091 INFO   
15:42:22.813 INFO   
15:42:30.215 INFO   
15:42:36.880 INFO  {"photo":{"url":"wip/uploads/profile/profileImg-1547394100008.jpg","thumbUrl":"wip/uploads/profile/profileImg-1547394100008-thumb.jpg","tinyUrl":"wip/uploads/profile/profileImg-1547394100008-tiny.jpg"},"lugareAdicionados":2,"reviewsAdicionados":0,"_id":"5c38f1e33223b08b4ea49650","email":"caio@hiboost.com.br","password":"$2b$10$S/TRtkTIEyzW7aM7/o.3h.H4W7/Nf/0fNqr4V3PYWSaq5YBejC4kW","username":"Caio Fernandes","favorites":[{"_id":"5c3910223223b08b4ea49664","placeId":"5c390f723223b08b4ea49661","data":"2019-01-11T21:52:34.334Z"}],"created":"2019-01-11T19:43:31.533Z","__v":0,"refreshToken":"jb9cTgLK6bl6Sk05n8qW3y5q1lgRN3exuiFRMS8STNPvfQn1k6I2jM1EPoy4a3DytOS3aUYjmMr04AvGuM4xzWvMzdsRSKz1xdxLi8pPr8ohtof8qZ02Eag1pBQiNGiU4AF8loxwVkNquiarLbfUVNQ3rJWAynHa5XgUVBkUtPIEnjq4XMtFUve9ALCg6zUTKNjWfyUjhvQ07ztK6bP3qCkmwF4EQUcj47vF9oshO63fXZD4hireZRQ8ayHQ7TY3"} 
20:03:26.253 INFO  {"lugareAdicionados":0,"reviewsAdicionados":0,"_id":"5c3e58ae3a34a574c7549667","email":"reschaider94@gmail.com","password":"$2b$10$ww6n6/lIvRFA2jQSlC3T1.J2zJmbbYhUoA7L.owbqDo1TVg/E2Mxe","username":"Renata Schaider","favorites":[],"created":"2019-01-15T22:03:26.148Z","__v":0} 
02:14:56.977 INFO   
02:15:53.351 INFO   
02:15:54.803 INFO   
10:31:54.754 INFO  {"photo":{"url":"wip/uploads/profile/profileImg-1547394100008.jpg","thumbUrl":"wip/uploads/profile/profileImg-1547394100008-thumb.jpg","tinyUrl":"wip/uploads/profile/profileImg-1547394100008-tiny.jpg"},"lugareAdicionados":9,"reviewsAdicionados":1,"_id":"5c38f1e33223b08b4ea49650","email":"caio@hiboost.com.br","password":"$2b$10$S/TRtkTIEyzW7aM7/o.3h.H4W7/Nf/0fNqr4V3PYWSaq5YBejC4kW","username":"Caio Fernandes","favorites":[{"_id":"5c3910223223b08b4ea49664","placeId":"5c390f723223b08b4ea49661","data":"2019-01-11T21:52:34.334Z"}],"created":"2019-01-11T19:43:31.533Z","__v":0,"refreshToken":"0mPcXvBE9UHep1H5wdqDl2T5StVP87zgvoaRIGX1iApjuo7YtthK5eLCskWTd28TvFnmCwfckc0qthSStd8bDIJgfl0blqHTyWSiiL5MMuNeiQRQBPTTNNcFrxh3H8K1FnxkpcetlIm7e9RFHKqVU3fymxLFkVjXdMCZtGvRgSHLGeLKYMfen9uIPsn838XdX06osxLU3uIDkNzYckQmS2SnFsMYIDNRcYKk7exGW5wbsbrJ6PT1sAbqGCS0Y2II"} 
19:02:24.103 INFO  {"photo":{"url":"wip/uploads/profile/profileImg-1547394100008.jpg","thumbUrl":"wip/uploads/profile/profileImg-1547394100008-thumb.jpg","tinyUrl":"wip/uploads/profile/profileImg-1547394100008-tiny.jpg"},"lugareAdicionados":9,"reviewsAdicionados":4,"_id":"5c38f1e33223b08b4ea49650","email":"caio@hiboost.com.br","password":"$2b$10$S/TRtkTIEyzW7aM7/o.3h.H4W7/Nf/0fNqr4V3PYWSaq5YBejC4kW","username":"Caio Fernandes","favorites":[{"_id":"5c3910223223b08b4ea49664","placeId":"5c390f723223b08b4ea49661","data":"2019-01-11T21:52:34.334Z"}],"created":"2019-01-11T19:43:31.533Z","__v":0,"refreshToken":"Z3OLzuQdvFGcYflU17FGnF5uqEZP2oU8IaVHYcJIFS30NaVG6Zb3RPyd647jKLtNXLniNEnyYd4gKaMRYsxqJVy21wk8ikg1Wec4hF9jJw6z48O5M0Poa4MlX2jd5L87TakiQmT6VmbKROIPdhNgdnVQgy4F7ZE0fDPdW7Dn99wro2XTi9BJP9fdO6T83gppKFz7NKs7fSopyMMoENoys7uFpkr0zMLXKra0N3QlxLyvIVOG7v0S0skxtkvGvx0m"} 
15:47:35.991 INFO  {"photo":{"url":"wip/uploads/profile/profileImg-1547426239722-400x400.jpg","thumbUrl":"wip/uploads/profile/profileImg-1547426239722-thumb.jpg","tinyUrl":"wip/uploads/profile/profileImg-1547426239722-tiny.jpg"},"lugareAdicionados":22,"reviewsAdicionados":14,"_id":"5c3918193223b08b4ea49666","email":"caioo@hiboost.com.br","password":"$2b$10$JlJPaFol5QEB.cDw9W0BveiOAJuQBnrIM9XqqIS8BtFKmIDqe1Se6","username":"Equipe Picos","favorites":[{"_id":"5c39eb97732a5a88124f6af5","placeId":"5c391bea3223b08b4ea49668","data":"2019-01-12T13:28:55.530Z"}],"created":"2019-01-11T22:26:33.666Z","__v":0,"refreshToken":"lH2f429T1Wh6vTmEdFU340uz48vyMGOMMwLytxZwdTmbnapd4eaZHDwqj4StN9K0eNvvfKQukUwaAojurJQ9j8kj6j2y0LslI48SEnRS7xzvMvjX1lxXqrfeID5tJOZTmLzWnweYyEh0psWlutsEZYuhSPmTrScvKhkCtZIuGSlcWLDXGRPDTqtoEhFpGq8w0EFkJNtMVWb0Antf56WR58RhRJki1xlKwDaVCQBzhWDnw82IEPvGGtUARn76AjYH"} 
21:16:49.279 INFO  {"lugareAdicionados":0,"reviewsAdicionados":0,"_id":"5c410ce1373a4bf0ac703cfe","email":"mia@hiboost.com.br","password":"$2b$10$Qzi2AYOa6czgKICIVI0J0OdJzB3onv.KDDaI6dNU0XNwp/l7p0/SG","username":"Mia Fernandes","favorites":[],"created":"2019-01-17T23:16:49.226Z","__v":0} 
16:20:13.131 INFO  {"photo":{"url":"wip/uploads/profile/profileImg-1547768187432-400x400.jpg","thumbUrl":"wip/uploads/profile/profileImg-1547768187432-thumb.jpg","tinyUrl":"wip/uploads/profile/profileImg-1547768187432-tiny.jpg"},"lugareAdicionados":1,"reviewsAdicionados":1,"_id":"5c410ce1373a4bf0ac703cfe","email":"mia@hiboost.com.br","password":"$2b$10$Qzi2AYOa6czgKICIVI0J0OdJzB3onv.KDDaI6dNU0XNwp/l7p0/SG","username":"Mia Fernandes","favorites":[],"created":"2019-01-17T23:16:49.226Z","__v":0,"refreshToken":"DsQfw8rA04BpnKnvvKNLzDPw7C6yAnNKTtbWmu7r3dh66rEdvcQrzR2ryjtX4qnBTmT55TGaVB3R5GWnf756u9G5lQ7YybxHARVDsa7yLQJswBtaeHqnLhjAbaiW152vIpD7Gdnv2gKmJcjrSIDA5FNW2y0ODBbsd7MRuue7IqYaMR073npkVjc7lMuqPw8NreCezI6jSpFBt4SRGb58THkfKrtEejmYDq2VlW3SzN6BX7M6mtKxiOE8BraUkvrS"} 
